<?xml version="1.0" encoding="UTF-8" standalone="no"?>
<svg style="enable-background:new" xmlns="http://www.w3.org/2000/svg" height="512" width="512.4" version="1.1" xmlns:xlink="http://www.w3.org/1999/xlink" viewBox="0 0 512.40002 512">
 <defs>
  <linearGradient id="b" y2="512" gradientUnits="userSpaceOnUse" x2="512.4" y1="-.000002205">
   <stop stop-color="#ff7bc8" offset="0"/>
   <stop stop-color="#f865bb" offset="1"/>
  </linearGradient>
  <radialGradient id="a" gradientUnits="userSpaceOnUse" cy="260.5" cx="210.2" gradientTransform="matrix(1 0 0 1.272 0 -70.88)" r="73.9">
   <stop stop-color="#fff" offset="0"/>
   <stop stop-color="#fff" stop-opacity="0" offset="1"/>
  </radialGradient>
 </defs>
 <path style="color:#000000;enable-background:accumulate" d="m-208.3 605.6c-7.842 0-14.55 5.029-17.32 12.19-0.0612-0.00067-0.1208 0-0.1823 0-7.088 0-12.83 6.002-12.83 13.41 0 7.404 5.746 13.41 12.83 13.41h33.83c5.155 0 9.333-4.365 9.333-9.75 0-4.543-2.974-8.363-7-9.445 0.001-0.1029 0-0.2015 0-0.3047 0-10.77-8.357-19.5-18.67-19.5z" stroke="#ccc" stroke-width="4" display="none" fill="#fff"/>
 <path style="color:#000000;enable-background:accumulate" d="m288.9 828.1c-6.349 0-11.78 4.072-14.02 9.867-0.0496-0.00055-0.0978 0-0.1476 0-5.738 0-10.39 4.86-10.39 10.85 0 5.995 4.652 10.85 10.39 10.85h27.39c4.173 0 7.557-3.534 7.557-7.894 0-3.678-2.408-6.771-5.667-7.647 0.001-0.0833 0-0.1632 0-0.2467 0-8.719-6.766-15.79-15.11-15.79z" stroke="#ccc" stroke-width="4" display="none" fill="none"/>
 <rect style="color-rendering:auto;color:#000000;isolation:auto;mix-blend-mode:normal;paint-order:stroke fill markers;shape-rendering:auto;solid-color:#000000;image-rendering:auto;enable-background:accumulate" height="512" width="512" y="-.000002205" x="0.2" fill="url(#b)"/>
 <path opacity=".1" style="color-rendering:auto;text-decoration-color:#000000;color:#000000;font-variant-numeric:normal;shape-rendering:auto;font-variant-ligatures:normal;text-decoration-line:none;font-variant-position:normal;mix-blend-mode:normal;solid-color:#000000;font-feature-settings:normal;shape-padding:0;font-variant-alternates:normal;text-indent:0;dominant-baseline:auto;font-variant-caps:normal;image-rendering:auto;white-space:normal;text-decoration-style:solid;text-orientation:mixed;isolation:auto;enable-background:accumulate;text-transform:none" d="m279 106.8c-0.0816-0.0273 2.348 6.717 2.686 6.717 17.97 0 41.71 9.081 58.07 22.47v0.002c29.9 24.45 41.68 61.24 36.18 115.1-3.05 29.82-8.093 45.3-23.76 72.91-2.504 4.413-8.103 14.65-12.5 22.88-16.97 31.65-23.36 40.73-37.15 52.81-1.693 1.484-3.088 2.605-3.838 4.609-0.7498 2.004-0.5926 3.732-0.5508 6.664v0.004c0.0706 4.516-0.0451 6.321-0.5918 9.396v0.002c-0.5355 3.021-0.8178 5.529-0.8047 7.594 0.002 0.3865 0.0917 0.7186 0.1172 1.08h-0.5703c-0.2443-2.798-0.0911-6.631 0.9023-12.85l0.002-0.002c0.232-1.462 0.3921-2.571 0.4629-3.531s0.394-1.725-0.5566-3.332c-0.4753-0.8036-1.706-1.635-2.693-1.742-0.987-0.1074-2.5 27.83-1.053 27.83h9.715c3.358-0.005 4.429-4.527 1.43-6.037-0.3557-0.1784-0.8386-0.4016-1.309-0.6211-0.0309-0.2418-0.0675-0.3983-0.0703-0.8398-0.009-1.41 0.2138-3.655 0.707-6.438v-0.002c0.6017-3.385 0.7623-5.935 0.6894-10.61v-0.006c-0.0413-2.924 0.0709-4.132 0.1465-4.334 0.0757-0.2023 0.3746-0.5625 2.068-2.047 14.27-12.5 21.52-22.79 38.57-54.6l0.002-0.004c4.368-8.176 9.991-18.46 12.42-22.73v-0.002c15.89-28 21.45-45.08 24.55-75.41 5.628-55.13-6.768-94.79-38.48-120.7-17.58-14.38-42.06-23.91-62.11-23.91-0.9324 0-1.659-0.0425-2.047-0.0918-0.009-0.001-0.003-0.00077-0.0117-0.002-0.2778-0.1593-0.4738-0.1949-0.627-0.2461zm1.137 0.6367c0.0601 0.0521 0.1087 0.0853 0.1777 0.1524l0.0508 0.0508c-0.0869-0.0883-0.1518-0.1342-0.2285-0.2031zm18.86 326.4c0.0288 0.0192 0.009 0.004 0.0332 0.0195 0.004 0.002 0.004 0.005 0.008 0.008z"/>
 <g fill-opacity=".08118" stroke="#00f" display="none" transform="translate(0 -558.4)" fill="#00f">
  <path d="m166.1 576.4h179.9c145.3 0 166.1 20.74 166.1 165.9v144.2c0 145.2-20.76 165.9-166.1 165.9h-179.9c-145.3 0-166.1-20-166.1-165.5v-144.2c0-145.2 20.76-165.9 166.1-165.9z" display="inline"/>
  <circle style="color:#000000;enable-background:accumulate" cx="256" transform="matrix(1.2 0 0 1.2 -51.2 528.8)" display="inline" cy="238" r="120" stroke-width=".8333"/>
  <rect stroke-linejoin="round" style="color:#000000;enable-background:accumulate" display="inline" height="272" width="272" stroke-linecap="round" y="678.4" x="120"/>
  <rect stroke-linejoin="round" style="color:#000000;enable-background:accumulate" display="inline" height="240" width="304" stroke-linecap="round" y="694.4" x="104"/>
  <rect stroke-linejoin="round" style="color:#000000;enable-background:accumulate" display="inline" height="304" width="240" stroke-linecap="round" y="662.4" x="136"/>
 </g>
 <g transform="matrix(1.16 0 0 1.16 -34.75 -90.2)">
  <path opacity=".1" style="color-rendering:auto;text-decoration-color:#000000;color:#000000;font-variant-numeric:normal;text-orientation:mixed;shape-rendering:auto;solid-color:#000000;text-decoration-line:none;font-variant-position:normal;mix-blend-mode:normal;font-feature-settings:normal;shape-padding:0;font-variant-alternates:normal;text-indent:0;dominant-baseline:auto;font-variant-caps:normal;image-rendering:auto;white-space:normal;text-decoration-style:solid;font-variant-ligatures:normal;isolation:auto;enable-background:accumulate;text-transform:none" d="m223.3 343.7c4.921 0.7376 9.682 0.1204 12.91-1.974 1.345-0.8704 1.533-0.9522 1.04 2.159-0.6938 4.34-0.8757 7.073-0.3742 8.975h5.272c-0.2775-0.1392-1.178-0.5476-1.256-0.5999-0.5846-0.3768-0.5956-2.386-0.0371-5.536 0.3118-1.754 0.3867-2.935 0.3477-5.429-0.0454-3.183-0.0457-3.181 1.792-4.792 7.613-6.671 11.32-11.93 20.55-29.14 2.377-4.449 5.422-10.02 6.76-12.38 8.561-15.09 11.44-23.92 13.11-40.25 3.02-29.58-3.54-50.33-20.26-64-9.211-7.534-22.3-12.58-32.61-12.58-1.104 0-1.788-0.0882-1.95-0.2459-0.1548-0.1573-2.678-0.2386-5.289-0.2512l-9.193-1.997c-0.4204 0.3971-0.7158 0.664-1.156 1.083-1.737 1.653-3.357 3.117-4.537 4.12-0.1212 0.103-0.1713 0.1338-0.283 0.2268-0.2081-0.5064-0.3988-0.9617-0.6784-1.683-0.8349-2.154-1.968-5.219-3.329-9.012-0.5104-1.422-0.7371-2.163-1.221-2.909-0.121-0.1865-0.2608-0.3964-0.5787-0.6328-0.2385-0.1773-0.6624-0.3518-1.103-0.3742l-0.00008 0.00025-0.002 0.001c-0.147-0.008-0.2953 0.002-0.4399 0.0339-1.157 0.2545-1.263 0.8804-1.419 1.173-0.2767 0.5177-0.454 1.03-0.7865 1.911-0.3325 0.8809-0.7371 1.994-1.159 3.182-0.8429 2.377-1.749 5.043-2.273 6.75-0.1482 0.4829-0.323 0.9662-0.4791 1.361-0.2329-0.0542-0.2909-0.0505-0.7515-0.1972-1.676-0.534-4.85-1.714-10.62-3.896-1.974-0.7469-3.787-1.426-5.121-1.92-0.6668-0.2468-1.213-0.4483-1.605-0.5894-0.1961-0.0706-0.3532-0.1256-0.4759-0.1675-0.0614-0.021-0.1118-0.0384-0.1696-0.0562-0.0289-0.009-0.0576-0.0164-0.1081-0.0297-0.0505-0.0134 0.0481-0.0615-0.459-0.0615-0.666 0-1.48 0.6502-1.682 1.097-0.2017 0.4469-0.1887 0.7053-0.1919 0.9434-0.006 0.4761 0.0595 0.8923 0.1664 1.492 0.2137 1.2 0.6334 3.035 1.33 5.932 0.4033 1.676 0.7938 3.282 1.099 4.52 0.0523 0.2118 0.0577 0.2236 0.1028 0.407-0.5222-0.1445-0.6903-0.1443-1.512-0.4388-1.642-0.5888-6.482-2.168-10.92-3.57-2.205-0.6962-4.296-1.374-5.881-1.903-0.7923-0.2646-1.458-0.4924-1.942-0.6635-0.4834-0.1711-0.962-0.3933-0.7038-0.2576-0.3468-0.1824-0.6802-0.3112-1.07-0.388-0.1946-0.0384-0.4018-0.0689-0.6922-0.0477s-0.7467 0.0599-1.239 0.5522c-0.5751 0.5752-0.5208 1.09-0.5098 1.324 0.0109 0.2344 0.0469 0.3434 0.0731 0.4346 0.0524 0.1824 0.0949 0.2704 0.1378 0.3646 0.0858 0.1885 0.178 0.3594 0.2947 0.5681 0.2333 0.4174 0.557 0.9579 0.9635 1.612 0.813 1.309 1.948 3.059 3.224 4.962 1.256 1.872 2.382 3.624 3.172 4.916 0.2565 0.4193 0.4076 0.6892 0.584 0.9953-0.1938 0.154-0.3308 0.27-0.5787 0.46-0.9693 0.743-2.309 1.726-3.763 2.754-2.976 2.104-4.45 2.945-6.035 5.109-1.586 2.164-3.191 5.381-7.075 12.67-2.238 4.198-4.595 8.607-5.221 9.767-0.3452 0.639-0.6317 1.239-0.8374 1.758-0.1028 0.2597-0.1866 0.4904-0.2523 0.7653-0.0328 0.1374-0.0668 0.2787-0.0731 0.5226-0.006 0.2439-0.1104 0.7205 0.5268 1.358 0.5561 0.5561 0.938 0.4972 1.134 0.5098 0.1962 0.0127 0.2952-0.003 0.3795-0.0138 0.1686-0.0221 0.2628-0.0477 0.3636-0.0742 0.2015-0.0531 0.398-0.116 0.6402-0.1993 0.4845-0.1666 1.123-0.4069 1.897-0.7102 1.549-0.6065 3.63-1.465 5.894-2.437 1.731-0.743 3.155-1.324 4.508-1.876-0.0225 0.0413-0.0314 0.0655-0.054 0.107-1.181 2.156-4.42 8.072-7.198 13.14-1.393 2.543-2.644 4.868-3.542 6.575-0.4492 0.8535-0.8106 1.552-1.062 2.056-0.1258 0.2524-0.2213 0.4516-0.2989 0.6243-0.0387 0.0863-0.0728 0.1591-0.1145 0.2745-0.0208 0.0577-0.0448 0.1179-0.0774 0.2714-0.0163 0.0768-0.0408 0.1709-0.0392 0.3837 0.00055 0.1064 0.0632 0.4526 0.0636 0.4537 0.00016 0.00052 0.1482 0.3653 0.1484 0.3657 0.00021 0.00039 0.3347 0.4332 0.3349 0.4335v0.002c0.00055 0.00053 0.297 0.2319 0.4335 0.2978 0.1365 0.066 0.259 0.103 0.3625 0.1272 0.207 0.0485 0.3459 0.0489 0.4537 0.0456 0.2156-0.007 0.3154-0.0353 0.3975-0.0562 0.1642-0.0418 0.2358-0.0746 0.3095-0.1049 0.1474-0.0606 0.265-0.1171 0.4038-0.1876 0.2778-0.141 0.6205-0.3291 1.036-0.5639 0.8301-0.4696 1.932-1.121 3.13-1.854 0.3966-0.2426 0.6591-0.385 1.027-0.6042-0.5217 1.904-0.9222 3.307-3.778 12.91-1.018 3.425-1.71 5.819-2.132 7.411-0.2108 0.7963-0.3539 1.386-0.4431 1.849-0.0445 0.2315-0.078 0.4238-0.0933 0.6604-0.008 0.1183-0.0144 0.2438 0.0117 0.4515s0.008 0.5641 0.5151 1.072c0.6096 0.6096 0.9281 0.4944 1.104 0.5098 0.1764 0.0154 0.268 0.007 0.3508 0 0.1657-0.0132 0.2766-0.0348 0.4007-0.0583 0.2482-0.0472 0.5202-0.1116 0.8448-0.1961 0.6492-0.169 1.486-0.4137 2.389-0.7006 0.6352-0.2017 1.176-0.3601 1.708-0.5162-0.0166 0.425-0.071 1.465-0.1908 3.089-0.1352 1.833-0.3214 4.173-0.5236 6.606-0.4046 4.865-0.8784 10.13-1.137 12.42-0.0805 0.7122-0.1187 1.355-0.1102 1.897 0.004 0.2714 0.0129 0.5048 0.07 0.8056 0.0285 0.1504 0.0528 0.3147 0.2014 0.6052 0.0743 0.1453 0.1795 0.3346 0.4261 0.5501 0.2466 0.2156 0.7012 0.4399 1.17 0.4399 0.7402 0 0.763-0.167 0.8787-0.23 0.1156-0.063 0.183-0.1112 0.2501-0.1579 0.1344-0.0934 0.252-0.1849 0.389-0.2957 0.2739-0.2216 0.6084-0.509 1.006-0.8618 0.795-0.7054 1.829-1.661 2.929-2.712 0.8696-0.8313 1.361-1.302 1.862-1.772 0.2232 1.1 0.4839 2.801 0.8766 5.106 2.669 15.66 3.105 18.2 3.497 19.62 0.0878 0.3182 0.1542 0.5614 0.2321 0.7982 0.039 0.1184 0.0757 0.2311 0.1611 0.406 0.0854 0.1748 0.0736 0.5354 0.9275 0.9052 0.4269 0.1849 1.136 0.15 1.536-0.0657 0.4001-0.2157 0.5525-0.4477 0.6529-0.601 0.2009-0.3065 0.2189-0.4397 0.2586-0.5671 0.0795-0.2547 0.1195-0.4472 0.177-0.7038 0.1077-0.4804 0.2409-1.326 0.4484-2.628 0.2074-1.302 0.4601-2.95 0.7102-4.635 0.1095-0.7379 0.2156-1.217 0.3275-1.863 0.9609 1.583 2.095 3.482 3.372 5.688 1.782 3.078 3.187 5.403 4.259 7.039 0.536 0.8179 0.9855 1.461 1.383 1.965 0.3978 0.5038 0.5685 0.8608 1.359 1.257 1.222 0.6127 3.603 1.525 13.12 5.126 1.259 0.4767 2.425 0.8858 3.319 1.171 0.4447 0.1421 0.8158 0.2526 1.135 0.3318 0.0264 0.0342 0.0546 0.0808 0.0784 0.1155 0.2602 0.3762 0.5666 0.7237 0.936 1.108 0.7387 0.7679 1.726 1.652 2.881 2.606 1.983 1.638 4.44 3.446 6.827 4.989l-3.849 14.13 1.67 0.4547 3.71-13.62c1.41 0.845 3.049 1.726 4.571 2.472 1.614 0.7915 2.972 1.407 4.052 1.701" transform="matrix(1.589 0 0 1.589 -97.61 -113.7)" fill="url(#a)"/>
  <g transform="translate(0,464)" stroke-width=".6723" fill="#fff">
   <path d="m237.9-92.07c2.229-0.3819 0.5674-0.1763 38.57-0.236 13.61-0.2501 22.39 15.83 14.48 27.41-6.458 9.867-13.37 7.82-50.46 7.82-8.853 0-16.7-7.876-16.94-16.68-0.6736-8.567 5.906-16.88 14.35-18.31m1.712 1.426c-0.1123 0.8646-0.2246 1.729-0.3368 2.599-0.2582 0.1742-0.7745 0.5224-1.033 0.6958-13.28 2.438-13.57 22.9 1.101 25.54-0.039 1.055 0.0732 2.105 0.1573 3.167 2.554 0.1573 5.12 0.1573 7.68 0.0231-0.0115-1.005-0.0231-2.004-0.0282-2.998 2.459-0.1291 4.929-0.1291 7.388 0 0 1.01 0.0162 2.021 0.0335 3.037 2.453 0.09541 4.918 0.08409 7.371-0.06723 0.0901-1.005 0.191-2.004 0.2192-3.003 2.475-0.07323 4.952-0.1007 7.427 0.03904 0.0162 1.005 0.0619 2.021 0.107 3.031 2.408 0.08409 4.822 0.0901 7.237-0.0231 0.1007-0.8868 0.2132-1.768 0.3314-2.65 0.4491-0.2414 0.9036-0.4773 1.359-0.7126 13.96-2.416 14.01-22.99 0.0557-25.52-0.4773-0.2024-0.954-0.404-1.426-0.6004-0.1236-0.87-0.2414-1.735-0.3482-2.599-2.386-0.1911-4.783-0.1855-7.169-0.0231-0.0504 0.9883-0.101 1.976-0.1291 2.97-2.493 0.0046-4.985-0.0046-7.472 0.01617-0.0282-0.9822-0.1238-1.954-0.2077-2.925-2.431-0.2299-4.878-0.2414-7.315-0.0566-0.0231 0.9822-0.039 1.965-0.045 2.953-2.481 0.0231-4.957 0.0231-7.433-0.0046 0.005-0.9715 0.0116-1.937 0.0231-2.908-2.51-0.2204-5.037-0.2373-7.546 0.01617z"/>
   <path d="m239.6-90.64c2.51-0.2528 5.036-0.236 7.545-0.01617-0.049 4.221-0.0887 22.06 0.0231 32.04-2.56 0.1345-5.126 0.1345-7.68-0.0231 0 0 0.1183-23.43-0.0282-28.84-0.3086 0.0335-0.9204 0.1007-1.23 0.1345 0.2582-0.1742 0.7745-0.5224 1.033-0.6958l0.3375-2.6z"/>
   <path d="m254.6-90.7c2.436-0.1855 4.884-0.1742 7.315 0.0566 0.2911 3.359 0.355 28.22 0.0162 32-2.453 0.1513-4.918 0.1626-7.371 0.06723-0.0185-1.13-0.0591-27.82 0.0397-32.12z"/>
   <path d="m269.7-90.71c2.386-0.1626 4.783-0.1679 7.169 0.0231 0.107 0.8646 0.2246 1.729 0.3483 2.599 0.4713 0.1964 0.9486 0.3987 1.426 0.6004-0.3536-0.01617-1.067-0.05036-1.426-0.06723-0.1338 4.092-0.1566 23.11 0.0672 25.69 0.3254-0.02819 0.9769-0.07323 1.302-0.1007-0.4545 0.236-0.9096 0.4713-1.359 0.7126-0.1176 0.8814-0.2299 1.763-0.3314 2.65-2.414 0.1123-4.828 0.107-7.237 0.0231-0.1788-4.051-0.228-26.88 0.0404-32.13z"/>
  </g>
  <path d="m259 168.7v6.006c0.5298-0.0269 1.085-0.0589 1.51-0.0626 0.842-0.008 1.445 0.0337 1.662 0.15 0.3303 0.1713 2.756 0.4462 5.408 0.6048 51.29 3.072 84.85 43.68 82.15 99.38-0.1754 3.664-0.4018 6.915-0.4948 7.235-0.2167 0.6915-0.6582 0.6646-7.698-0.5223-34.06-5.739-60.4 14.78-63.79 49.68-0.3096 3.158 0.4569 3.242 18.11 2.127 21.63-1.373 40.07-10.41 47.86-23.44 2.395-4.005 2.438-3.747 0.5798 3.746-3.076 12.38-7.004 21.67-15.61 36.9-2.415 4.252-7.178 12.96-10.59 19.35-15.76 29.5-20.02 35.59-33.78 48.1-3.004 2.735-3.004 1.617-3.004 3.775 0 2.704-4.295 5.017-11.73 6.318-3.587 0.6292-7.081 0.6884-10.57 0.1799v4.335c7.82 1.172 15.39 0.1911 20.52-3.136 2.137-1.383 2.436-1.512 1.652 3.432-1.102 6.897-1.392 11.24-0.5948 14.26h8.377c-0.441-0.2212-1.87-0.869-1.994-0.9522-0.929-0.5987-0.9476-3.791-0.0601-8.797 0.4954-2.787 0.6143-4.664 0.5523-8.627-0.0722-5.058-0.0718-5.055 2.849-7.615 12.1-10.6 17.98-18.95 32.65-46.31 3.778-7.07 8.615-15.92 10.74-19.67 13.6-23.98 18.18-38.01 20.83-63.95 4.8-47.01-5.625-79.98-32.19-101.7-14.64-11.97-35.43-20-51.82-20-1.755 0-2.841-0.1392-3.099-0.3899-0.246-0.25-4.256-0.3798-8.405-0.3999zm85.31 121.3c0.5924-0.008 1.121 0.1138 1.547 0.3924 2.694 1.765-1.676 8.652-7.27 11.45-3.571 1.786-5.883 1.39-5.883-1.005 0-4.317 7.459-10.78 11.61-10.84z" stroke-width=".1032" fill="#fff"/>
  <g transform="matrix(1.589 0 0 1.589 -97.61 -113.7)" fill="#fff">
   <path style="color-rendering:auto;text-decoration-color:#000000;color:#000000;font-variant-numeric:normal;shape-rendering:auto;font-variant-ligatures:normal;text-decoration-line:none;font-variant-position:normal;mix-blend-mode:normal;solid-color:#000000;font-feature-settings:normal;shape-padding:0;font-variant-alternates:normal;text-indent:0;dominant-baseline:auto;font-variant-caps:normal;image-rendering:auto;white-space:normal;text-decoration-style:solid;text-orientation:mixed;isolation:auto;enable-background:accumulate;text-transform:none" d="m202.3 167.4c-0.0791-0.004-0.1592 0.002-0.237 0.0186-0.6227 0.1362-0.7185 0.5035-0.843 0.7364-0.197 0.3685-0.4105 0.9371-0.7398 1.81-0.3292 0.8725-0.7329 1.981-1.153 3.166-0.8398 2.369-1.746 5.034-2.262 6.714-0.1667 0.5431-0.3631 1.096-0.5383 1.53-0.1418 0.3518-0.249 0.5318-0.2692 0.5874-0.2105-0.02-0.681-0.1178-1.512-0.3826-1.725-0.5498-4.892-1.73-10.66-3.912-1.973-0.7463-3.785-1.426-5.116-1.918-0.6655-0.2461-1.21-0.4447-1.598-0.584-0.1938-0.0697-0.3477-0.1234-0.4621-0.1625-0.0572-0.0195-0.1034-0.0354-0.1473-0.049-0.0219-0.007-0.0414-0.0141-0.0711-0.022-0.0297-0.008 0.0159-0.0322-0.2387-0.0322-0.3557 0-0.7811 0.3385-0.8938 0.5891s-0.113 0.4213-0.1151 0.5992c-0.004 0.356 0.0509 0.7512 0.154 1.329 0.2064 1.155 0.6263 2.991 1.322 5.883 0.4028 1.674 0.7928 3.277 1.097 4.513 0.2398 0.9745 0.359 1.442 0.4655 1.843-0.5284-0.0707-1.466-0.3031-3.005-0.8549-1.594-0.5715-6.459-2.159-10.89-3.558-2.209-0.6975-4.304-1.377-5.894-1.908-0.7954-0.2654-1.465-0.4948-1.957-0.6687-0.4916-0.1739-0.8947-0.3452-0.8176-0.3047-0.2781-0.1463-0.5518-0.2504-0.8346-0.3064-0.1414-0.028-0.2834-0.0465-0.4604-0.0339-0.1771 0.0126-0.4307 0.0396-0.6924 0.3013-0.2895 0.2895-0.263 0.5502-0.2573 0.672 0.006 0.1219 0.0253 0.1821 0.0406 0.2353 0.0306 0.1064 0.0596 0.1719 0.0931 0.2455 0.0669 0.1471 0.1519 0.3065 0.2624 0.5045 0.2211 0.3959 0.5404 0.9295 0.9429 1.578 0.805 1.296 1.936 3.044 3.208 4.94 1.261 1.881 2.393 3.638 3.193 4.945 0.4 0.6534 0.7186 1.195 0.9226 1.571 0.0217 0.0399 0.0267 0.0519 0.0457 0.088-0.005 0.004-0.006 0.006-0.0119 0.0101-0.2704 0.228-0.6706 0.5461-1.161 0.9226-0.9813 0.7529-2.327 1.742-3.789 2.776-2.997 2.119-4.335 2.862-5.837 4.913s-3.124 5.273-7.01 12.56c-2.239 4.199-4.595 8.601-5.226 9.769-0.3314 0.6134-0.6067 1.195-0.7939 1.667-0.0936 0.2364-0.1661 0.4401-0.215 0.645-0.0244 0.1024-0.0455 0.2019-0.0491 0.3453-0.003 0.1435-0.051 0.3958 0.2742 0.7211 0.2798 0.2798 0.4738 0.2523 0.5772 0.259 0.1035 0.007 0.1606-0.002 0.2116-0.009 0.102-0.0134 0.1726-0.0311 0.2539-0.0525 0.1626-0.0428 0.3491-0.1033 0.5806-0.1828 0.4631-0.159 1.094-0.3953 1.862-0.6957 1.536-0.601 3.612-1.455 5.869-2.424 2.244-0.9631 4.321-1.826 5.85-2.436 0.3431-0.1369 0.5376-0.2068 0.821-0.3166-0.309 0.6446-0.6524 1.345-1.117 2.194-1.181 2.156-4.419 8.072-7.198 13.14-1.391 2.54-2.641 4.862-3.536 6.563-0.4477 0.8504-0.8067 1.544-1.053 2.038-0.1231 0.247-0.2178 0.4421-0.2861 0.5942-0.0341 0.076-0.0607 0.1377-0.088 0.2133-0.0136 0.0378-0.0283 0.0739-0.0457 0.1557-0.009 0.0409-0.0211 0.0901-0.0203 0.1981 0.00039 0.054 0.0319 0.2292 0.0322 0.2302 0.00014 0.00051 0.0743 0.1824 0.0745 0.1828 0.00021 0.0004 0.1673 0.2181 0.1676 0.2184 0.00056 0.00053 0.1497 0.1158 0.2184 0.149s0.1306 0.0538 0.1828 0.066c0.1045 0.0244 0.1748 0.0238 0.2302 0.022 0.1108-0.003 0.1658-0.0188 0.2116-0.0305 0.0917-0.0233 0.1396-0.044 0.193-0.066 0.1068-0.0439 0.2122-0.0941 0.3403-0.1591 0.2561-0.13 0.5918-0.3138 1-0.5451 0.8172-0.4625 1.914-1.111 3.105-1.84 1.108-0.6778 2.101-1.257 2.879-1.693-0.0522 0.2173-0.0801 0.3814-0.1439 0.6179-0.5789 2.147-1.032 3.696-4.205 14.37-1.017 3.422-1.706 5.812-2.123 7.386-0.2084 0.7869-0.3482 1.367-0.43 1.791-0.0409 0.2122-0.0686 0.3814-0.0796 0.5519-0.005 0.0852-0.01 0.17 0.005 0.2895s0.01 0.3078 0.2692 0.5671c0.3077 0.3077 0.4726 0.2507 0.5688 0.259 0.0962 0.009 0.152 0.004 0.2065 0 0.109-0.009 0.2011-0.0252 0.3081-0.0457 0.2139-0.0409 0.4751-0.1026 0.7888-0.1845 0.6274-0.1638 1.453-0.406 2.345-0.689 0.8708-0.2765 1.708-0.5274 2.348-0.7076 0.182-0.0513 0.3016-0.0816 0.4469-0.1202 0.0305 0.2213 0.0666 0.439 0.066 0.7432-0.00086 0.3196-0.0846 1.712-0.2201 3.548-0.1355 1.837-0.3222 4.177-0.5248 6.612-0.405 4.869-0.877 10.12-1.139 12.45-0.0771 0.6824-0.1126 1.3-0.105 1.786 0.003 0.2431 0.0141 0.4479 0.0542 0.6585 0.02 0.1053 0.0394 0.2096 0.1219 0.3707 0.0413 0.0806 0.0989 0.181 0.2268 0.2929 0.128 0.1118 0.3596 0.2268 0.5992 0.2268 0.3754 0 0.3958-0.0873 0.4655-0.1253s0.1192-0.0706 0.171-0.1066c0.1035-0.0719 0.2107-0.1556 0.3386-0.259 0.2557-0.2068 0.585-0.4903 0.9768-0.8379 0.7836-0.6952 1.811-1.645 2.905-2.69 1.172-1.12 2.02-1.985 2.576-2.449 0.1866-0.1557 0.2623-0.1897 0.3589-0.2472 0.0279 0.051 0.0118 0.0101 0.0474 0.1083 0.0985 0.2715 0.2094 0.7017 0.325 1.271 0.2313 1.139 0.4905 2.835 0.882 5.133 2.669 15.66 3.117 18.23 3.479 19.54 0.0875 0.3173 0.1546 0.5574 0.2201 0.7567 0.0328 0.0997 0.0619 0.1869 0.1151 0.2962s0.0547 0.3043 0.4926 0.4943c0.2189 0.095 0.5811 0.0756 0.7855-0.0355s0.2843-0.2316 0.3386-0.3149c0.1085-0.1665 0.1265-0.2546 0.1557-0.3487 0.0586-0.1883 0.0985-0.3796 0.1557-0.6348 0.0855-0.3815 0.233-1.279 0.4401-2.576 0.2072-1.298 0.4614-2.943 0.711-4.625 0.2419-1.63 0.5024-3.082 0.7262-4.134 0.2428 0.3838 0.4543 0.7116 0.7719 1.231 1.014 1.657 2.365 3.933 3.805 6.421 1.778 3.07 3.178 5.387 4.234 6.998 0.5279 0.8054 0.968 1.433 1.339 1.903 0.371 0.4699 0.5858 0.7789 1.068 1.021 1.109 0.5559 3.521 1.491 13.03 5.092 1.247 0.4723 2.403 0.8781 3.276 1.156 0.4362 0.139 0.7986 0.246 1.085 0.3166 0.1371 0.0337 0.253 0.0572 0.3775 0.0745 0.1036 0.2305 0.213 0.4259 0.3504 0.6043 0.1285 0.1667 0.2539 0.2948 0.3487 0.4012l0.002 0.002c0.1234 0.1388 0.2576 0.3024 0.4655 0.5112 0.622 0.6248 1.442 1.359 2.39 2.15l1.109-1.329c-0.9183-0.7659-1.713-1.48-2.272-2.042-0.1523-0.1532-0.2482-0.2696-0.3995-0.4401l-0.002-0.002c-0.0139-0.0156-0.0168-0.0203-0.0305-0.0355-0.1063-0.1192-0.2148-0.2376-0.2404-0.2708v-0.002c-0.1334-0.1732-0.2064-0.3524-0.1693-0.2302l-0.0339 0.0101c-0.0149-0.1299-0.0171-0.2962-0.044-0.369-0.0352-0.0951-0.0756-0.1758-0.1168-0.259-0.005-0.01-0.009-0.0207-0.0135-0.0305-0.00039-0.00085-0.00082-0.003-0.002-0.003-0.004-0.009-0.008-0.0171-0.0119-0.0254-0.2376-0.4676-0.7026-1.139-1.199-1.847l0.007-0.0237-0.237-0.3318c-0.3818-0.5354-0.7394-1.064-1.243-1.701-4.152-5.255-6.275-7.964-7.601-10.02s-1.884-3.481-2.973-6.348c-0.5616-1.48-1.456-3.799-1.987-5.165-0.5277-1.355-1.448-3.772-2.04-5.356-0.6005-1.606-1.374-3.53-1.769-4.381-0.2583-0.5565-0.3643-0.8992-0.3944-1.781-0.0302-0.8817 0.0522-2.261 0.2387-4.596 0.3807-4.764 0.3283-6.063-0.3724-9.686-0.2182-1.128-0.4385-2.19-0.6213-3.001-0.0914-0.4057-0.1732-0.7489-0.2421-1.012-0.0344-0.1317-0.0656-0.2419-0.0965-0.3403-0.0309-0.0983-0.0166-0.1357-0.1473-0.347 0.1058 0.1713-0.0726-0.2118-0.1659-0.5942-0.0746-0.3058-0.1487-0.6925-0.2201-1.068 0.552 0.4688 1.132 0.9622 1.83 1.578 0.9252 0.8153 1.813 1.539 2.521 2.062 0.3536 0.2614 0.6599 0.4714 0.9243 0.628 0.1322 0.0784 0.2507 0.1428 0.391 0.1998 0.1404 0.0569 0.2637 0.2129 0.755 0.0491 0.3078-0.1026 0.3992-0.24 0.4875-0.3436s0.1501-0.199 0.2116-0.303c0.1231-0.208 0.2366-0.4467 0.3538-0.7245 0.2345-0.5557 0.4784-1.264 0.6924-2.028 0.4104-1.466 1.133-4.058 1.608-5.761 0.2342-0.8396 0.4878-1.675 0.7025-2.336 0.2147-0.6614 0.4519-1.243 0.4334-1.209 0.0513-0.094 0.0712-0.2556 0.1185-0.3623 0.1005 1.331 0.19 2.646 0.3521 4.112 0.1199 1.084 0.2444 2.088 0.3538 2.846 0.0547 0.379 0.1041 0.6958 0.1524 0.9429 0.0242 0.1236 0.0473 0.2283 0.0762 0.3318 0.0144 0.0518 0.0289 0.1022 0.0559 0.1693 0.027 0.0672 0.0288 0.1439 0.215 0.3301-0.006-0.006 0.0133 0.0352 0.1574 0.1557 0.1442 0.1206 0.5862 0.2865 0.9023 0.1947 0.3161-0.0919 0.4383-0.2382 0.5569-0.364 0.1186-0.1257 0.2246-0.264 0.3572-0.4469 0.5303-0.7318 1.465-2.21 3.482-5.366 1.959-3.065 4.868-7.617 6.467-10.11 1.599-2.498 3.656-5.716 4.571-7.157 0.1318-0.2076 0.2204-0.327 0.3453-0.518 0.00038 0.008 0.00082 0.0107 0.002 0.0186 0.0708 1.439 0.152 3.41 0.2268 5.561 0.0754 2.165 0.1848 4.174 0.3013 5.678 0.0582 0.7519 0.1188 1.376 0.1794 1.843 0.0303 0.2338 0.0591 0.4259 0.0948 0.5942 0.0178 0.0842 0.0357 0.162 0.066 0.2522 0.0302 0.0902 0.0178 0.1837 0.2472 0.413 0.2235 0.2235 0.6009 0.2984 0.8176 0.2658 0.2167-0.0327 0.3371-0.104 0.4401-0.1676 0.2061-0.1272 0.3453-0.263 0.5045-0.4283 0.3184-0.3306 0.6768-0.7833 1.09-1.353 0.8267-1.139 1.85-2.732 2.866-4.496 0.3405-0.591 2.268-3.714 4.11-6.682v-3.274c-1.96 3.128-5.057 8.131-5.61 9.092-0.9902 1.719-1.994 3.278-2.768 4.344-0.0965 0.1329-0.1446 0.1742-0.2336 0.2912-0.0269-0.2829-0.0527-0.4826-0.0796-0.8295-0.1137-1.468-0.2216-3.459-0.2962-5.603-0.0751-2.158-0.1571-4.135-0.2285-5.586-0.0357-0.7256-0.0677-1.319-0.0965-1.744-0.0144-0.2121-0.0275-0.3801-0.0406-0.5112-0.007-0.0655-0.0126-0.1207-0.022-0.1811-0.004-0.0302-0.009-0.0609-0.022-0.1117-0.006-0.0254-0.0151-0.0546-0.0339-0.105-0.009-0.0251-0.0207-0.0563-0.0423-0.0982s-0.1146-0.1704-0.1151-0.171c-0.1588-0.1841-0.4514-0.2991-0.6466-0.303-0.1953-0.004-0.3084 0.0429-0.386 0.0778-0.1552 0.0699-0.2009 0.1224-0.2488 0.1642-0.0959 0.0836-0.1481 0.145-0.2116 0.2201-0.1269 0.1501-0.2683 0.3374-0.4368 0.5722-0.3368 0.4696-0.7705 1.117-1.234 1.847-0.9112 1.435-2.969 4.656-4.567 7.152-1.599 2.498-4.508 7.048-6.467 10.11-1.668 2.61-2.304 3.586-2.832 4.367-0.0946-0.688-0.197-1.489-0.2996-2.417-0.2368-2.141-0.4585-4.62-0.5095-5.955-0.018-0.4713-0.0589-0.841-0.154-1.173-0.0476-0.1661-0.1032-0.3257-0.2353-0.5095-0.1322-0.1838-0.4265-0.4362-0.8159-0.4418-0.3894-0.005-0.6488 0.2046-0.7905 0.3589-0.1418 0.1543-0.2209 0.2991-0.2946 0.4554-0.1474 0.3125-0.2562 0.6771-0.3589 1.144-0.1456 0.6632-0.4805 1.604-0.5502 1.732-0.2085 0.3819-0.338 0.8134-0.562 1.503-0.224 0.6899-0.4804 1.544-0.7211 2.407-0.4749 1.702-1.2 4.293-1.61 5.757-0.1962 0.701-0.4238 1.359-0.6196 1.823-0.0165 0.0391-0.0263 0.0501-0.0423 0.0863-0.1467-0.0983-0.2659-0.1701-0.4571-0.3115-0.6502-0.4806-1.512-1.182-2.405-1.969-0.914-0.8054-1.766-1.537-2.405-2.072-0.32-0.2676-0.5861-0.4864-0.7888-0.645-0.1014-0.0793-0.1847-0.1427-0.2641-0.1981-0.0397-0.0276-0.0755-0.0531-0.1303-0.0846-0.0274-0.0159-0.0599-0.0322-0.1151-0.0559-0.0553-0.0237-0.1106-0.0745-0.3538-0.0745-0.3138 0-0.6068 0.2155-0.7161 0.3656s-0.1313 0.2499-0.1507 0.325c-0.0386 0.1502-0.0372 0.2287-0.0389 0.3132-0.003 0.1689 0.009 0.3312 0.0288 0.5231 0.0393 0.3838 0.1124 0.8632 0.2014 1.361s0.1925 1.008 0.2979 1.441c0.1054 0.4322 0.1207 0.6824 0.3758 1.095-0.1022-0.1654-0.0491-0.0999-0.0322-0.0457 0.017 0.0542 0.0426 0.1454 0.0728 0.2607 0.0603 0.2306 0.1399 0.5593 0.2285 0.953 0.1773 0.7875 0.3958 1.838 0.6111 2.951 0.6906 3.571 0.7235 4.488 0.3453 9.221-0.1875 2.347-0.2794 3.751-0.2438 4.792 0.0356 1.042 0.2342 1.763 0.5536 2.451 0.3353 0.7225 1.131 2.686 1.718 4.257 0.5959 1.594 1.517 4.009 2.05 5.378 0.5291 1.359 1.422 3.68 1.981 5.151 1.091 2.874 1.732 4.492 3.137 6.671s3.544 4.898 7.697 10.16c0.369 0.4671 0.65 0.8758 0.953 1.305l-0.0627 0.2336 0.2522 0.3369c0.0207 0.0277 0.0288 0.0452 0.0491 0.0728-0.7656-0.2546-1.616-0.5438-2.62-0.9243-9.509-3.6-11.98-4.577-12.87-5.021 0.1337 0.067-0.1683-0.1429-0.4858-0.5451-0.3176-0.4022-0.7378-1-1.249-1.781-1.023-1.561-2.414-3.859-4.183-6.915-1.446-2.498-2.803-4.782-3.827-6.456-0.5124-0.8372-0.9408-1.52-1.261-2.009-0.1602-0.2444-0.2921-0.4393-0.4029-0.5908-0.0554-0.0758-0.1044-0.1395-0.1625-0.2065-0.0291-0.0335-0.0597-0.0675-0.11-0.1134-0.0504-0.0459-0.0845-0.1179-0.3352-0.2014-0.2203-0.0734-0.4837-0.0396-0.6433 0.0304-0.1596 0.0702-0.2429 0.1529-0.303 0.2167-0.1202 0.1276-0.1576 0.2101-0.1964 0.2878-0.0774 0.1553-0.1233 0.2933-0.176 0.4638-0.1055 0.3411-0.2158 0.7901-0.3352 1.346-0.2388 1.111-0.5087 2.635-0.7601 4.329-0.2019 1.361-0.3939 2.594-0.5739 3.739-0.3413-1.563-0.6522-3.126-2.901-16.33-0.3889-2.283-0.6447-3.967-0.8921-5.185-0.1237-0.6091-0.2431-1.101-0.3944-1.518s-0.321-0.7906-0.7076-1.085c-0.3866-0.2945-0.986-0.3242-1.383-0.1794-0.3971 0.1448-0.7051 0.3766-1.051 0.6653-0.6922 0.5774-1.515 1.429-2.664 2.527-1.08 1.033-2.097 1.973-2.857 2.648-0.005 0.004-0.007 0.006-0.0119 0.0101 0.0147-0.1925 0.009-0.3178 0.0322-0.5282 0.2689-2.379 0.7386-7.619 1.144-12.5 0.2029-2.439 0.3886-4.783 0.5248-6.629 0.1361-1.846 0.2238-3.132 0.2251-3.672v-0.002c0.00087-0.5352-0.0423-1.019-0.1337-1.429-0.0457-0.2048-0.0967-0.388-0.2048-0.5925-0.0541-0.1022-0.1216-0.2144-0.2556-0.3369-0.134-0.1224-0.3756-0.2624-0.6636-0.2624-0.3554 0-0.3851 0.0496-0.6111 0.105s-0.5109 0.1316-0.843 0.2252c-0.6642 0.1871-1.516 0.4427-2.404 0.7245-0.7826 0.2485-1.471 0.4474-2.036 0.5993 0.0733-0.3162 0.1251-0.5662 0.2522-1.046 0.4069-1.536 1.094-3.922 2.109-7.337 3.173-10.67 3.633-12.24 4.217-14.41 0.1692-0.6272 0.3037-1.213 0.3894-1.674 0.0428-0.2307 0.0739-0.4271 0.0897-0.606 0.008-0.0895 0.0143-0.1708 0.009-0.281-0.006-0.1102 0.1149-0.2558-0.2708-0.6416-0.2347-0.2347-0.4586-0.2489-0.5772-0.2556-0.1187-0.007-0.1826 0.005-0.2353 0.0153-0.1053 0.02-0.1614 0.0426-0.2201 0.0643-0.1173 0.0435-0.2252 0.0934-0.3572 0.1574-0.2639 0.128-0.6051 0.3094-1.017 0.5383-0.8245 0.4578-1.926 1.102-3.118 1.832-0.7711 0.4718-1.365 0.813-2.001 1.185 0.0683-0.1304 0.0977-0.191 0.171-0.3301 0.8886-1.688 2.135-4.005 3.523-6.538 2.778-5.073 6.019-10.99 7.2-13.14 0.5987-1.093 1.107-2.1 1.454-2.863 0.1734-0.3812 0.3063-0.6956 0.3961-0.9615 0.0449-0.133 0.0819-0.2458 0.105-0.4063 0.0115-0.0803 0.0277-0.1695-0.002-0.3403-0.0292-0.1707-0.1812-0.545-0.5586-0.6924-0.2636-0.1029-0.3418-0.0648-0.4114-0.0593-0.0696 0.005-0.1129 0.0152-0.154 0.0237-0.0822 0.0171-0.1499 0.0355-0.2285 0.0593-0.1573 0.0475-0.348 0.1132-0.5823 0.198-0.4687 0.1696-1.108 0.417-1.882 0.7262-1.55 0.6184-3.635 1.485-5.891 2.453-2.243 0.9625-4.307 1.811-5.816 2.402-0.3467 0.1357-0.5413 0.2017-0.8244 0.3081 0.0992-0.2023 0.1568-0.3548 0.2742-0.5722 0.6391-1.183 2.991-5.577 5.231-9.778 3.891-7.298 5.542-10.53 6.878-12.35 1.336-1.823 2.401-2.374 5.441-4.523 1.478-1.045 2.836-2.043 3.843-2.815 0.5034-0.3862 0.9178-0.7152 1.224-0.9734 0.1531-0.1291 0.2783-0.2391 0.3843-0.342 0.053-0.0514 0.1016-0.0989 0.154-0.1608 0.0524-0.062 0.1164-0.0936 0.2014-0.3487 0.1404-0.4211 0.0287-0.4958 0-0.5942s-0.0581-0.1722-0.0931-0.2522c-0.0701-0.16-0.161-0.335-0.2759-0.5468-0.2299-0.4235-0.5574-0.9821-0.9666-1.65-0.8184-1.337-1.959-3.108-3.232-5.006-1.262-1.882-2.385-3.617-3.174-4.887-0.0774-0.1247-0.1069-0.1807-0.1777-0.2962 0.4933 0.1733 1.096 0.3804 1.838 0.628 1.603 0.5349 3.706 1.215 5.923 1.915 4.421 1.396 9.33 3.001 10.83 3.538 1.728 0.6198 2.866 0.9725 3.751 1.033 0.4426 0.03 0.9207 0.0256 1.341-0.3877 0.21-0.2066 0.3309-0.5069 0.3555-0.7584 0.0245-0.2515-0.0159-0.4633-0.0745-0.6602-0.029-0.0972-0.2673-1.025-0.5705-2.257s-0.693-2.834-1.095-4.506c-0.6937-2.883-1.108-4.713-1.298-5.779-0.0132-0.0737-0.006-0.0721-0.0169-0.1388 0.3271 0.1191 0.6307 0.2298 1.085 0.3978 1.325 0.4901 3.134 1.168 5.104 1.913 5.772 2.184 8.924 3.362 10.75 3.943 0.9108 0.2904 1.478 0.4392 1.976 0.474 0.2486 0.0174 0.4948 0.005 0.7448-0.0846 0.25-0.0898 0.4708-0.2698 0.5959-0.4232 0.3033-0.372 0.3987-0.6839 0.5959-1.173 0.1972-0.4892 0.4057-1.077 0.5874-1.669 0.4993-1.627 1.406-4.292 2.24-6.644 0.417-1.176 0.8164-2.276 1.139-3.132 0.0933-0.2472 0.104-0.2565 0.1862-0.4638 0.1652 0.4009 0.2348 0.5021 0.4926 1.221 1.366 3.806 2.504 6.886 3.352 9.075 0.4241 1.095 0.7748 1.965 1.05 2.602 0.1374 0.3185 0.2553 0.5775 0.3589 0.7855s0.1444 0.3312 0.3403 0.5502c0.1812 0.2026 0.4356 0.2824 0.5942 0.2962 0.1586 0.0139 0.2565-0.009 0.3335-0.0288 0.1539-0.0397 0.2367-0.0855 0.3233-0.132 0.1734-0.093 0.3364-0.2044 0.5349-0.3487 0.3971-0.2886 0.9102-0.7038 1.529-1.229 1.081-0.9184 2.499-2.204 4.012-3.628v-2.365c-0.2087 0.198-0.3457 0.3204-0.5586 0.5231-1.747 1.662-3.375 3.132-4.574 4.151-0.5049 0.4289-0.879 0.7232-1.2 0.9666-0.0372-0.0834-0.0615-0.1281-0.1033-0.2251-0.2596-0.6018-0.6063-1.461-1.026-2.544-0.8391-2.166-1.974-5.235-3.337-9.033-0.5073-1.414-0.775-2.18-1.132-2.731-0.0894-0.1375-0.1855-0.2733-0.369-0.4097-0.1376-0.1023-0.3669-0.1964-0.6043-0.2082zm-6.411 162.5 0.0914 0.0169-0.1066 0.0322c0.008-0.0187 0.009-0.0308 0.0153-0.0491zm4.017 3.162-1.099 1.337c0.1395 0.1146 0.2763 0.2148 0.3623 0.2844 0.003 0.003 0.009 0.007 0.0119 0.0101l1.078-1.354c-0.005-0.003-0.007-0.006-0.0119-0.0101-0.1278-0.0999-0.2546-0.1957-0.342-0.2675zm0.4198 0.3267-1.088 1.346h0.002c0.9575 0.7738 1.999 1.575 3.088 2.368h0.002c0.7641 0.5593 1.544 1.123 2.345 1.659h0.002l0.9632-1.437c-0.762-0.5117-1.519-1.058-2.289-1.618l-0.002-0.002c-1.065-0.776-2.086-1.559-3.02-2.314l-0.002-0.002z"/>
   <path style="color-rendering:auto;text-decoration-color:#000000;color:#000000;font-variant-numeric:normal;shape-rendering:auto;font-variant-ligatures:normal;text-decoration-line:none;font-variant-position:normal;mix-blend-mode:normal;solid-color:#000000;font-feature-settings:normal;shape-padding:0;font-variant-alternates:normal;text-indent:0;dominant-baseline:auto;font-variant-caps:normal;image-rendering:auto;white-space:normal;text-decoration-style:solid;text-orientation:mixed;isolation:auto;enable-background:accumulate;text-transform:none" d="m239.6 82.77c-0.2709-0.01474-0.5441 0.0037-0.8105 0.0625-2.131 0.469-2.327 1.622-2.615 2.162-0.5098 0.9539-0.8366 1.898-1.449 3.521-0.6126 1.623-1.358 3.673-2.135 5.863-1.553 4.38-3.222 9.292-4.188 12.44-0.2731 0.8898-0.5952 1.78-0.8828 2.508-0.4291-0.0999-0.5361-0.093-1.385-0.3633-3.089-0.984-8.936-3.159-19.56-7.18-3.638-1.376-6.978-2.628-9.436-3.537-1.229-0.4548-2.234-0.8261-2.957-1.086-0.3614-0.1301-0.6509-0.2314-0.877-0.3086-0.1131-0.0387-0.2061-0.07072-0.3125-0.1035-0.0533-0.01658-0.1061-0.03018-0.1992-0.05469-0.0931-0.02469 0.0886-0.1133-0.8457-0.1133-1.227 0-2.728 1.198-3.1 2.021-0.3716 0.8235-0.3477 1.3-0.3535 1.738-0.0111 0.8773 0.1097 1.644 0.3066 2.75 0.3938 2.212 1.167 5.593 2.451 10.93 0.7431 3.088 1.463 6.047 2.025 8.328 0.0964 0.3902 0.1062 0.412 0.1895 0.75-0.9622-0.2663-1.272-0.2659-2.785-0.8086-3.026-1.085-11.94-3.996-20.12-6.578-4.063-1.283-7.916-2.531-10.84-3.506-1.46-0.4875-2.687-0.9073-3.578-1.223-0.8907-0.3153-1.772-0.7247-1.297-0.4746-0.639-0.336-1.253-0.5734-1.971-0.7148-0.3587-0.0708-0.7404-0.127-1.275-0.0879-0.535 0.0391-1.376 0.1103-2.283 1.018-1.06 1.06-0.9596 2.008-0.9395 2.439 0.0201 0.4319 0.0865 0.6328 0.1348 0.8008 0.0966 0.336 0.1748 0.4982 0.2539 0.6719 0.1581 0.3474 0.328 0.6623 0.543 1.047 0.4298 0.7691 1.026 1.765 1.775 2.971 1.498 2.411 3.59 5.637 5.941 9.143 2.314 3.449 4.389 6.677 5.846 9.059 0.4727 0.7726 0.7512 1.27 1.076 1.834-0.3571 0.2838-0.6095 0.4974-1.066 0.8477-1.786 1.369-4.254 3.18-6.934 5.074-5.484 3.878-8.199 5.426-11.12 9.414-2.922 3.988-5.881 9.915-13.04 23.34-4.125 7.736-8.467 15.86-9.621 18-0.6361 1.177-1.164 2.283-1.543 3.24-0.1895 0.4785-0.3438 0.9036-0.4648 1.41-0.0604 0.2533-0.1232 0.5135-0.1348 0.9629-0.0111 0.4494-0.2035 1.328 0.9707 2.502 1.025 1.025 1.728 0.9161 2.09 0.9394 0.3615 0.0234 0.5439-0.006 0.6992-0.0254 0.3107-0.0407 0.4843-0.0879 0.6699-0.1367 0.3713-0.0978 0.7333-0.2137 1.18-0.3672 0.8928-0.3069 2.069-0.7498 3.496-1.309 2.854-1.118 6.689-2.7 10.86-4.49 3.19-1.369 5.814-2.44 8.307-3.457-0.0415 0.0761-0.0578 0.1207-0.0996 0.1973-2.176 3.973-8.144 14.87-13.26 24.22-2.567 4.687-4.872 8.97-6.527 12.12-0.8278 1.573-1.494 2.859-1.957 3.789-0.2317 0.4651-0.4079 0.8321-0.5508 1.15-0.0713 0.159-0.1342 0.2932-0.2109 0.5059-0.0383 0.1063-0.0825 0.2172-0.1426 0.5-0.03 0.1415-0.0752 0.3148-0.0723 0.707 0.001 0.1961 0.1164 0.834 0.1172 0.8359 0.00028 0.00096 0.273 0.6731 0.2734 0.6738 0.00038 0.00072 0.6167 0.7983 0.6172 0.7988a3.189 3.189 0 0 0 0 0.004c0.001 0.00098 0.5473 0.4272 0.7988 0.5488 0.2516 0.1216 0.4773 0.1897 0.668 0.2344 0.3814 0.0894 0.6373 0.0901 0.8359 0.084 0.3972-0.0129 0.5812-0.065 0.7324-0.1035 0.3025-0.077 0.4345-0.1374 0.5703-0.1934 0.2717-0.1117 0.4883-0.2158 0.7441-0.3457 0.5118-0.2597 1.143-0.6064 1.908-1.039 1.53-0.8654 3.56-2.065 5.768-3.416 0.7307-0.4471 1.215-0.7095 1.893-1.113-0.9614 3.508-1.699 6.094-6.961 23.79-1.876 6.311-3.151 10.72-3.928 13.66-0.3884 1.467-0.6522 2.553-0.8164 3.406-0.082 0.4265-0.1437 0.7809-0.1719 1.217-0.0147 0.2179-0.0266 0.4493 0.0215 0.832s0.0139 1.039 0.9492 1.975c1.123 1.123 1.71 0.911 2.035 0.9394s0.4938 0.0129 0.6465 0c0.3053-0.0243 0.5096-0.0641 0.7383-0.1074 0.4573-0.087 0.9585-0.2057 1.557-0.3613 1.196-0.3114 2.737-0.7623 4.402-1.291 1.17-0.3717 2.166-0.6635 3.146-0.9512-0.0306 0.7831-0.1308 2.699-0.3516 5.691-0.249 3.378-0.5921 7.69-0.9648 12.17-0.7455 8.964-1.619 18.66-2.096 22.88-0.1483 1.312-0.2188 2.496-0.2031 3.496 0.007 0.5 0.0237 0.9301 0.1289 1.484 0.0525 0.2771 0.0972 0.5799 0.3711 1.115 0.1369 0.2677 0.3308 0.6165 0.7852 1.014 0.4543 0.3972 1.292 0.8106 2.156 0.8106 1.364 0 1.406-0.3077 1.619-0.4238 0.2131-0.1161 0.3371-0.205 0.4609-0.291 0.2476-0.1721 0.4644-0.3408 0.7168-0.5449 0.5048-0.4083 1.121-0.9379 1.854-1.588 1.465-1.3 3.37-3.06 5.396-4.998 1.602-1.532 2.507-2.399 3.432-3.266 0.4114 2.026 0.8916 5.162 1.615 9.408 4.917 28.86 5.722 33.54 6.443 36.16 0.1618 0.5863 0.2841 1.035 0.4277 1.471 0.0719 0.2181 0.1395 0.4259 0.2969 0.748 0.1574 0.3222 0.1356 0.9864 1.709 1.668 0.7866 0.3408 2.093 0.2764 2.83-0.1211 0.7372-0.3975 1.018-0.825 1.203-1.107 0.3702-0.5648 0.4033-0.8102 0.4766-1.045 0.1465-0.4693 0.2202-0.824 0.3262-1.297 0.1985-0.8852 0.444-2.444 0.8262-4.842s0.8478-5.436 1.309-8.541c0.2018-1.36 0.3973-2.242 0.6035-3.434 1.771 2.917 3.86 6.417 6.213 10.48 3.283 5.671 5.872 9.957 7.848 12.97 0.9877 1.507 1.816 2.693 2.549 3.621 0.733 0.9282 1.048 1.586 2.504 2.316 2.252 1.129 6.639 2.809 24.17 9.445 2.32 0.8784 4.469 1.632 6.115 2.158 0.8194 0.2618 1.503 0.4655 2.092 0.6113 0.0486 0.063 0.1007 0.1489 0.1445 0.2129 0.4794 0.6932 1.044 1.334 1.725 2.041 1.361 1.415 3.18 3.044 5.309 4.803 3.653 3.018 8.182 6.349 12.58 9.193l-7.092 26.03 3.078 0.8379 6.836-25.09c2.597 1.557 5.618 3.18 8.422 4.555 2.974 1.458 5.476 2.593 7.467 3.135v-6.787c-1.255-0.501-2.824-1.17-4.66-2.07-2.867-1.406-6.059-3.132-8.545-4.654-4.697-2.877-10.01-6.752-14.03-10.07-2.006-1.657-3.694-3.186-4.771-4.307-0.4766-0.4954-0.771-0.8637-0.9512-1.105 0.0251 0.1168 0.0258 0.3036 0.0156 0.5469 0.00092-0.1824-0.0142-0.3766-0.043-0.5762 0.006 0.007 0.0223 0.0229 0.0273 0.0293-0.0216-0.1002-0.0384-0.1871-0.0664-0.2188 0.0128 0.0622 0.0282 0.1243 0.0371 0.1856-0.0181-0.0246-0.0825-0.0904-0.0957-0.1094-0.0647-0.0935-0.005-0.1461 0.0586-0.0762h0.002c-0.08-0.4074-0.2247-0.831-0.4902-1.24-0.5887-0.9071-1.6-1.406-2.33-1.537-0.5852-0.1052-1-0.0795-1.42-0.0176-0.3532-0.0953-0.7632-0.2067-1.363-0.3984-1.489-0.4756-3.563-1.206-5.795-2.051-16.68-6.316-21.55-8.239-23.22-9.029-0.0258-0.0413-0.3655-0.2907-0.7051-0.7207-0.5359-0.6788-1.293-1.751-2.221-3.166-1.855-2.83-4.41-7.051-7.662-12.67-2.67-4.612-5.176-8.828-7.074-11.93-0.9493-1.551-1.745-2.82-2.352-3.746-0.3035-0.463-0.555-0.8344-0.7891-1.154-0.117-0.1599-0.223-0.3044-0.3809-0.4863-0.0789-0.091-0.1649-0.189-0.3301-0.3398-0.1653-0.1507-0.2796-0.4011-1.191-0.7051-0.8003-0.2668-1.755-0.1438-2.33 0.1094-0.5749 0.2531-0.8732 0.5439-1.08 0.7637-0.4137 0.4395-0.5182 0.6956-0.627 0.9141-0.2176 0.437-0.3078 0.7369-0.418 1.094-0.2204 0.7137-0.4271 1.566-0.6524 2.615-0.3136 1.461-0.6538 3.592-0.9883 5.623-0.849-4.655-0.8132-3.904-3.688-20.77-0.7143-4.192-1.182-7.29-1.652-9.607-0.2352-1.159-0.4618-2.121-0.7891-3.023-0.3273-0.9022-0.7051-1.86-1.838-2.723-1.133-0.8625-3.005-0.944-4.061-0.5586-1.055 0.3854-1.712 0.9139-2.412 1.498-1.4 1.168-2.89 2.728-4.986 4.732-0.8535 0.816-1.471 1.359-2.252 2.086 0.5107-4.965 1.179-12.14 1.824-19.91 0.374-4.497 0.7194-8.822 0.9707-12.23s0.415-5.682 0.418-6.879a3.189 3.189 0 0 0 0 -0.004c0.002-1.086-0.0831-2.06-0.291-2.984-0.1039-0.4624-0.2147-0.9036-0.5273-1.492-0.1563-0.2943-0.3586-0.6441-0.8047-1.051-0.4461-0.4067-1.282-0.8984-2.293-0.8984-1.212 0-1.064 0.1307-1.51 0.2402-0.4455 0.1094-0.9829 0.2558-1.605 0.4316-1.245 0.3517-2.823 0.8258-4.473 1.35-0.3999 0.127-0.6565 0.1866-1.037 0.3027 0.755-2.809 1.886-6.76 3.645-12.68 5.847-19.67 6.702-22.59 7.781-26.59 0.321-1.191 0.5767-2.299 0.7461-3.209 0.0846-0.4551 0.1503-0.8472 0.1875-1.266 0.0186-0.2092 0.0356-0.4132 0.0176-0.7461-0.0184-0.3329 0.4415-0.8203-0.9629-2.225-0.8604-0.8605-1.676-0.9135-2.102-0.9375-0.4258-0.024-0.6446 0.0212-0.8203 0.0547-0.3513 0.0671-0.5083 0.1344-0.6621 0.1914-0.3075 0.1141-0.5331 0.2197-0.8008 0.3496-0.5354 0.2599-1.179 0.6011-1.953 1.031-1.216 0.6754-2.887 1.676-4.555 2.68 1.306-2.438 2.485-4.662 4.102-7.613 5.12-9.348 11.09-20.25 13.26-24.22 1.119-2.043 2.069-3.921 2.732-5.381 0.3318-0.7298 0.5913-1.339 0.7891-1.926 0.0989-0.2932 0.191-0.5488 0.2598-1.029 0.0343-0.2402 0.0927-0.5263-0.01-1.123-0.1024-0.5967-0.6508-1.957-2.021-2.492-0.9617-0.3755-1.233-0.2298-1.467-0.2109-0.2337 0.0188-0.3642 0.0481-0.4805 0.0723-0.2325 0.0485-0.3882 0.0951-0.5586 0.1465-0.3407 0.1028-0.7039 0.227-1.15 0.3887-0.8929 0.3234-2.081 0.7838-3.518 1.357-2.873 1.147-6.724 2.747-10.89 4.535-3.174 1.362-5.758 2.405-8.221 3.396 1.753-3.265 4.664-8.704 8.158-15.26 7.174-13.46 10.25-19.42 12.56-22.57 2.308-3.15 4.017-3.985 9.656-7.973 2.738-1.936 5.253-3.784 7.133-5.225 0.9398-0.7204 1.717-1.333 2.314-1.836 0.2987-0.2516 0.5491-0.4705 0.791-0.7051 0.1209-0.1174 0.2379-0.2341 0.3887-0.4121 0.1507-0.178 0.3671-0.2556 0.6719-1.17 0.5083-1.525 0.1029-1.754 0.0176-2.047-0.0853-0.2926-0.1633-0.4736-0.2441-0.6582-0.1616-0.3692-0.3408-0.7166-0.5644-1.129-0.4474-0.8247-1.062-1.867-1.824-3.113-1.525-2.492-3.633-5.768-5.988-9.279-1.473-2.196-2.526-3.869-3.699-5.693 2.852 0.9464 6.264 2.059 10.01 3.242 8.134 2.568 17.22 5.539 19.89 6.496 3.229 1.158 5.326 1.855 7.348 1.99 1.011 0.0678 2.368 0.1414 3.697-1.166 0.6645-0.6537 1.051-1.622 1.125-2.379 0.0744-0.7568-0.0527-1.335-0.1992-1.828 0.00043 0.001-0.4745-1.821-1.033-4.086-0.5587-2.265-1.273-5.214-2.014-8.291-0.9711-4.036-1.393-6.04-1.807-8.033 2.372 0.8802 5.324 1.984 8.672 3.25 10.64 4.024 16.43 6.195 19.88 7.293 1.723 0.5489 2.821 0.8621 4.016 0.9453 0.5972 0.0416 1.278 0.0179 2.023-0.25 0.7454-0.2679 1.433-0.8323 1.791-1.271 0.9163-1.124 0.958-1.619 1.342-2.57 0.3837-0.9512 0.7802-2.067 1.129-3.203 0.9049-2.948 2.573-7.857 4.105-12.18 0.357-1.007 0.6408-1.764 0.9727-2.678 2.187 6.064 4.152 11.42 5.564 15.06 0.786 2.028 1.438 3.647 1.959 4.854 0.2603 0.6031 0.4827 1.099 0.6953 1.525 0.2126 0.4266 0.2343 0.6537 0.8672 1.361 0.6575 0.7351 1.582 1.025 2.146 1.074 0.5645 0.0492 0.897-0.0338 1.15-0.0996 0.5067-0.1312 0.7303-0.2621 0.9512-0.3808 0.4417-0.2375 0.7719-0.4734 1.168-0.7617 0.7922-0.5766 1.754-1.357 2.91-2.34 1.752-1.489 3.987-3.516 6.359-5.723v-8.721c-0.7747 0.7317-1.319 1.223-2.131 1.996-3.202 3.047-6.185 5.743-8.359 7.592-0.2233 0.1898-0.3156 0.2465-0.5215 0.418-0.3834-0.9332-0.7348-1.772-1.25-3.102-1.538-3.97-3.627-9.616-6.135-16.61-0.9406-2.621-1.358-3.985-2.25-5.359-0.223-0.3436-0.4805-0.7303-1.066-1.166-0.4394-0.3268-1.221-0.6482-2.033-0.6895zm2.199 5.23c0.0256-0.04772 0.0573 0.1243-0.1406 0.3555 0.011-0.02782 0.1506-0.3742 0.1406-0.3555zm-13.6 297.8c-0.2596 0.194-0.4964 0.3273-0.7246 0.3711 0.2144-0.0726 0.4504-0.177 0.7246-0.3711z" transform="matrix(.5427 0 0 .5427 72.28 121.6)"/>
  </g>
 </g>
</svg>
