<?xml version="1.0" encoding="UTF-8" standalone="no"?>
<svg
   xmlns:dc="http://purl.org/dc/elements/1.1/"
   xmlns:cc="http://creativecommons.org/ns#"
   xmlns:rdf="http://www.w3.org/1999/02/22-rdf-syntax-ns#"
   xmlns:svg="http://www.w3.org/2000/svg"
   xmlns="http://www.w3.org/2000/svg"
   xmlns:sodipodi="http://sodipodi.sourceforge.net/DTD/sodipodi-0.dtd"
   xmlns:inkscape="http://www.inkscape.org/namespaces/inkscape"
   id="svg2"
   viewBox="0 0 322.75553 571.18853"
   version="1.0"
   sodipodi:docname="fig-05-legs.svg"
   width="322.75552"
   height="525"
   inkscape:version="0.92.5 (0.92.5+68)">
  <defs
     id="defs8">
	
	
	

	
	
	

	
	
	
</defs>
  <sodipodi:namedview
     pagecolor="#ffffff"
     bordercolor="#666666"
     borderopacity="1"
     objecttolerance="10"
     gridtolerance="10"
     guidetolerance="10"
     inkscape:pageopacity="0"
     inkscape:pageshadow="2"
     inkscape:window-width="1859"
     inkscape:window-height="1056"
     id="namedview6"
     showgrid="false"
     fit-margin-top="0"
     fit-margin-left="0"
     fit-margin-right="0"
     fit-margin-bottom="0"
     showguides="true"
     inkscape:guide-bbox="true"
     inkscape:zoom="0.71535486"
     inkscape:cx="-17.70774"
     inkscape:cy="319.31189"
     inkscape:window-x="61"
     inkscape:window-y="24"
     inkscape:window-maximized="1"
     inkscape:current-layer="svg2"
     inkscape:snap-global="false">
    <sodipodi:guide
       position="228.40481,248.22733"
       orientation="0,1"
       id="guide4749"
       inkscape:locked="false" />
    <sodipodi:guide
       position="161.78458,67.766008"
       orientation="1,0"
       id="guide4753"
       inkscape:locked="false" />
    <sodipodi:guide
       position="1.2904,-0.084422122"
       orientation="0,320"
       id="guide4785"
       inkscape:locked="false" />
    <sodipodi:guide
       position="321.2904,519.9156"
       orientation="0,-320"
       id="guide4789"
       inkscape:locked="false" />
    <sodipodi:guide
       position="1.2904,519.9156"
       orientation="520,0"
       id="guide4791"
       inkscape:locked="false" />
    <sodipodi:guide
       position="149.49796,367.20028"
       orientation="-0.70710678,0.70710678"
       id="guide4756"
       inkscape:locked="false" />
    <sodipodi:guide
       position="191.97783,345.9746"
       orientation="0.70710678,0.70710678"
       id="guide4758"
       inkscape:locked="false" />
    <sodipodi:guide
       position="174.67122,207.66544"
       orientation="0.70710678,0.70710678"
       id="guide4760"
       inkscape:locked="false" />
    <sodipodi:guide
       position="251.13499,321.32544"
       orientation="-0.70710678,0.70710678"
       id="guide4762"
       inkscape:locked="false" />
    <sodipodi:guide
       position="-55.354318,388.23157"
       orientation="0,1"
       id="guide6367"
       inkscape:locked="false" />
  </sodipodi:namedview>
  <metadata
     id="metadata3">
    <rdf:RDF>
      <cc:Work>
        <dc:format>image/svg+xml</dc:format>
        <dc:type
           rdf:resource="http://purl.org/dc/dcmitype/StillImage" />
        <cc:license
           rdf:resource="http://creativecommons.org/publicdomain/zero/1.0/" />
        <dc:publisher>
          <cc:Agent
             rdf:about="http://openclipart.org/">
            <dc:title>Openclipart</dc:title>
          </cc:Agent>
        </dc:publisher>
        <dc:title></dc:title>
        <dc:date>2007-05-01T13:34:43</dc:date>
        <dc:description>anubis, anubis, clip art, clipart, colouring book, colouring book, egypt, egypt, externalsource, god, god, image, line art, line art, media, mythology, mythology, pantheon, pantheon, png, public domain, svg, </dc:description>
        <dc:source>http://openclipart.org/detail/4269/anubis-by-molumen</dc:source>
        <dc:creator>
          <cc:Agent>
            <dc:title>molumen</dc:title>
          </cc:Agent>
        </dc:creator>
        <dc:subject>
          <rdf:Bag>
            <rdf:li>anubis</rdf:li>
            <rdf:li>clip art</rdf:li>
            <rdf:li>clipart</rdf:li>
            <rdf:li>colouring book</rdf:li>
            <rdf:li>egypt</rdf:li>
            <rdf:li>externalsource</rdf:li>
            <rdf:li>god</rdf:li>
            <rdf:li>image</rdf:li>
            <rdf:li>line art</rdf:li>
            <rdf:li>media</rdf:li>
            <rdf:li>mythology</rdf:li>
            <rdf:li>pantheon</rdf:li>
            <rdf:li>png</rdf:li>
            <rdf:li>public domain</rdf:li>
            <rdf:li>svg</rdf:li>
          </rdf:Bag>
        </dc:subject>
      </cc:Work>
      <cc:License
         rdf:about="http://creativecommons.org/publicdomain/zero/1.0/">
        <cc:permits
           rdf:resource="http://creativecommons.org/ns#Reproduction" />
        <cc:permits
           rdf:resource="http://creativecommons.org/ns#Distribution" />
        <cc:permits
           rdf:resource="http://creativecommons.org/ns#DerivativeWorks" />
      </cc:License>
    </rdf:RDF>
  </metadata>
  <g
     inkscape:groupmode="layer"
     id="layer1"
     inkscape:label="base"
     style="display:inline"
     transform="translate(1.4039274,51.272933)" />
  <g
     id="g7818"
     transform="rotate(-1.8412033,270.55313,85.86296)">
    <path
       inkscape:connector-curvature="0"
       id="path7814"
       d="m 131.13662,319.10273 v -0.007 c -2.55099,-4.97895 -5.11265,-2.35233 -5.11265,-2.35233 -2.37649,4.34826 -5.37059,7.97986 -6.12625,14.20746 -16.01468,17.34093 -21.148294,47.29831 -32.671217,69.84736 -0.818852,4.10723 1.522125,4.54929 1.022105,8.28521 -10.029891,23.88608 -11.353342,57.86616 -21.44082,81.68548 1.209317,2.9135 3.855504,-2.4253 5.104147,1.18361 0.380634,2.43632 -5.597407,6.00483 -1.019979,5.92013 2.252897,-0.65795 1.327037,-6.85679 4.084169,-3.5508 -1.283759,3.63983 -2.855188,6.94743 -4.084169,10.6524 h -5.106273 c -9.744766,13.16693 -12.70326,34.20478 -24.502883,44.98748 1.41719,6.37907 -3.890064,4.9606 -3.06419,10.65241 -1.931256,2.49496 -5.875114,2.65813 -7.146231,5.92014 2.848427,1.03902 5.043212,2.83637 8.168337,3.55292 3.959426,-7.6412 10.713526,-12.04183 11.230399,-23.67628 6.424411,0.34525 5.03044,-8.3749 10.210421,-9.47093 3.139168,-17.27251 12.348434,-27.50963 16.334548,-43.80175 2.707971,-0.0179 6.013203,0.65754 6.128376,-2.36507 -1.658774,-2.02431 -3.092278,-4.3104 -3.064188,-8.28734 7.1,-26.10745 6.936031,-66.13798 21.440818,-80.50188 2.86809,-12.06438 7.79153,-21.74838 14.29459,-29.59641 0.17978,11.49764 -0.49426,17.03337 3.06206,23.67627 0.78093,25.13847 9.61395,40.94538 19.40086,55.63988 7.85846,-0.43156 8.04322,8.03817 15.31458,8.28734 3.23748,-1.37613 2.51444,-7.34278 6.12412,-8.28734 2.88635,0.97877 2.64691,-1.6689 5.10627,-1.1836 14.37837,-21.64519 29.07189,-49.10446 24.50289,-88.78921 h 3.06418 c -4.24877,-7.80895 -7.91692,-22.24096 -8.16833,-30.77788 14.71266,13.26625 19.40034,39.97692 27.56919,59.19068 2.60124,6.12175 9.79997,14.19389 4.08205,21.30907 -9.66893,-6.25856 -12.91125,-25.84202 -17.35665,-36.69801 -1.29218,-3.15615 -1.72086,-11.47194 -6.12412,-9.46881 8.00172,15.97618 10.51523,38.31584 20.4187,52.08696 2.3133,26.95593 3.63893,47.27694 4.08418,75.76535 -0.8287,4.17238 -4.11227,5.492 -4.08418,10.65454 5.71512,1.10253 3.56986,-6.91156 8.16835,-7.10373 4.88923,16.82465 15.91263,26.53538 19.39873,44.98535 7.94834,7.75194 14.52326,17.09932 18.37875,29.59852 3.9791,-1.58133 5.29322,0.60897 8.16834,-1.18572 1.22759,-8.03043 -6.28162,-11.01136 -9.19044,-15.38894 -0.63906,-0.9641 -1.09121,-4.26552 -2.04208,-5.92014 -4.8457,-8.42617 -10.89571,-14.29752 -12.2525,-24.86199 -3.03804,-1.60576 -4.60963,-4.91284 -7.14624,-7.10161 -0.78374,-8.17049 -4.59769,-12.82337 -7.14835,-18.94187 2.49026,-10.4 -1.8064,-18.06932 -3.06207,-28.41068 -1.37926,-11.35921 -1.39979,-23.63003 -3.06418,-34.33294 -1.1686,-7.51255 -3.35353,-12.80947 -3.0642,-20.12334 0.13624,-3.43301 1.421,-6.93328 1.02211,-10.65454 -1.14611,-10.69639 -7.62211,-16.71183 -11.2304,-26.04348 -6.66179,-17.23017 -11.03663,-38.79836 -21.44295,-48.54041 -0.58709,-7.20964 -4.53544,-10.52153 -8.16621,-14.20534 -1.67913,-0.22866 -2.90952,-0.59739 -3.05781,2.36721 l -0.009,0.004 c -4.50917,-0.0848 -10.36897,-3.49415 -11.21978,-2.37146 -3.84706,0.90875 -4.88168,-1.44417 -8.16833,-1.1836 l -0.002,-0.009 c -1.86988,-0.11558 -11.61409,-0.64389 -11.2304,0.004 -3.24602,0.17909 -4.48967,2.67863 -8.16196,2.36508 -2.6e-4,10e-4 2.6e-4,0.003 0,0.004 l -0.004,-0.004 c 0.001,1.3e-4 0.003,-1.2e-4 0.004,0 0.27646,-1.29746 -5.23836,0.96757 -7.15261,2.36296 z"
       style="clip-rule:evenodd;fill:#ffffff;fill-opacity:1;fill-rule:evenodd;stroke-width:1.5124135" />
    <path
       sodipodi:nodetypes="cccccccccccccccccccccccccccccccccccccccccccccccscccccccccccccccccscccccsccccccccccccccccccccccccccccccccccccccccccccccccccccccccccccccccccccccccccccccccccccccccccccccccccccccccccc"
       inkscape:connector-curvature="0"
       id="path7487"
       transform="matrix(1.0879782,0,0,1.0879782,-14.197714,0)"
       d="m 133.58203,293.29883 v -0.006 c -2.34471,-4.57633 -4.69922,-2.16211 -4.69922,-2.16211 -2.18432,3.99664 -4.93631,7.33457 -5.63086,13.05859 -14.71967,15.93867 -19.43816,43.47358 -30.029294,64.19922 -0.752637,3.77511 1.39904,4.18142 0.939453,7.61524 -9.218834,21.95456 -10.435266,53.18687 -19.707031,75.08007 1.111527,2.6779 3.543733,-2.22918 4.691406,1.0879 0.349854,2.23931 -5.144779,5.51925 -0.9375,5.4414 2.070719,-0.60474 1.219728,-6.30232 3.753907,-3.26367 -1.179949,3.3455 -2.624306,6.38564 -3.753907,9.79101 h -4.693359 c -8.956766,12.1022 -11.676025,31.43885 -22.521484,41.34961 1.302591,5.86324 -3.575498,4.55947 -2.816407,9.79102 -1.775087,2.29321 -5.400029,2.44318 -6.568359,5.44141 2.618092,0.955 4.635398,2.60701 7.507813,3.26562 3.639251,-7.0233 9.847188,-11.06808 10.322265,-21.76172 5.904908,0.31733 4.623659,-7.69768 9.384766,-8.70508 2.885323,-15.87578 11.349891,-25.28509 15.013672,-40.25976 2.488994,-0.0165 5.526952,0.60436 5.632812,-2.17383 -1.524639,-1.86061 -2.842225,-3.96184 -2.816406,-7.61719 6.525866,-23.9963 6.375156,-60.7898 19.707033,-73.99218 2.63616,-11.08881 7.16147,-19.98972 13.13867,-27.20313 0.16524,10.5679 -0.45429,15.65599 2.81445,21.76172 0.71778,23.10567 8.83653,37.63437 17.83203,51.14062 7.22299,-0.39667 7.39281,7.38817 14.07618,7.61719 2.97569,-1.26485 2.31111,-6.74901 5.6289,-7.61719 2.65295,0.89962 2.43287,-1.53395 4.69336,-1.08789 13.21568,-19.89488 26.72102,-45.13368 22.52149,-81.60937 h 2.8164 c -3.9052,-7.17749 -7.27673,-20.44247 -7.50781,-28.28906 13.52294,12.19349 17.83155,36.74423 25.33984,54.40429 2.39089,5.62672 9.0075,13.04612 3.75196,19.58594 -8.88707,-5.75247 -11.8672,-23.75234 -15.95313,-33.73047 -1.18769,-2.90093 -1.5817,-10.54427 -5.6289,-8.70312 7.35467,14.68428 9.66493,35.21747 18.76757,47.875 2.12623,24.77617 3.34467,43.45394 3.75391,69.63867 -0.76168,3.83498 -3.77973,5.04789 -3.75391,9.79297 5.25297,1.01337 3.28118,-6.35267 7.50782,-6.5293 4.49387,15.46415 14.62587,24.38963 17.83007,41.34766 7.30561,7.12509 13.34886,15.7166 16.89258,27.20507 3.65733,-1.45346 4.86519,0.55972 7.50781,-1.08984 1.12832,-7.38106 -5.77366,-10.12094 -8.44726,-14.14453 -0.58739,-0.88614 -1.00297,-3.92059 -1.87695,-5.44141 -4.45386,-7.7448 -10.01464,-13.14137 -11.26172,-22.85156 -2.79237,-1.47591 -4.23687,-4.51556 -6.56836,-6.52734 -0.72037,-7.50979 -4.22591,-11.78642 -6.57031,-17.41016 2.28889,-9.55901 -1.66033,-16.60816 -2.81446,-26.11328 -1.26773,-10.44066 -1.2866,-21.71921 -2.8164,-31.55664 -1.0741,-6.90506 -3.08235,-11.77365 -2.81641,-18.49609 0.12522,-3.1554 1.30609,-6.37263 0.93945,-9.79297 -1.05343,-9.83144 -7.00575,-15.36045 -10.32226,-23.9375 -6.12309,-15.83687 -10.14417,-35.66097 -19.70899,-44.61524 -0.53962,-6.62664 -4.16869,-9.67072 -7.50586,-13.05664 -1.54335,-0.21017 -2.67424,-0.54909 -2.81054,2.17578 l -0.008,0.004 c -4.14454,-0.0779 -9.53049,-3.2116 -10.3125,-2.17969 -3.53597,0.83526 -4.48693,-1.32739 -7.50781,-1.08789 l -0.002,-0.008 c -1.71868,-0.10623 -10.67493,-0.59182 -10.32227,0.004 -2.98353,0.16461 -4.12662,2.46203 -7.50195,2.17383 -2.4e-4,0.001 2.4e-4,0.003 0,0.004 l -0.004,-0.004 c 0.001,1.2e-4 0.003,-1.1e-4 0.004,0 0.2541,-1.19254 -4.81477,0.88933 -6.57422,2.17188 z m 21.09766,-2.94531 c 4.44337,0.0999 8.91545,1.08676 12.68945,2.94531 v 0.002 c 8.7528,4.31099 14.93619,16.73569 15.01367,31.55469 -20.82467,-0.73946 -39.65943,-4.85135 -58.18359,0 1.39683,-11.81778 6.58428,-24.63695 15.01562,-30.46875 4.08472,-2.82656 9.75194,-4.16164 15.46485,-4.0332 z m -22.66602,3.02539 c 0.80966,0.0303 1.66328,0.34203 2.50781,1.01562 -1.02761,3.88438 -3.21697,6.42223 -6.56836,7.61524 v 0.004 c -2.15761,-3.63646 0.55203,-8.76631 4.06055,-8.63476 z m 44.47071,0.16601 c 3.43667,-0.19625 5.76403,3.76639 5.90039,8.46094 -5.18713,0.21106 -6.94908,-3.54824 -8.44532,-7.61524 l 0.002,-0.004 c 0.89803,-0.53045 1.74988,-0.79651 2.54297,-0.8418 z m -50.0254,9.50586 c 0.84435,-0.0258 1.31033,0.38563 1.49219,1.12695 -2.49416,9.80151 -8.24366,15.83271 -7.50781,29.38086 -4.72109,5.40669 -5.92159,14.8928 -11.25977,19.58399 v -0.008 c -3.17062,7.9334 -3.6042,19.03991 -13.140621,19.59375 2.086212,-11.38069 7.310051,-22.07619 11.261721,-32.64258 5.21294,-13.93585 10.58735,-27.19459 18.76953,-36.9961 0.13636,-0.0219 0.26414,-0.0354 0.38476,-0.0391 z m 28.83204,22.6836 c 10.88192,-0.009 21.25323,0.9609 28.96679,4.56835 1.48333,6.73592 1.48333,19.37588 0,26.11329 -18.85207,-1.65255 -40.25949,-5.39771 -61.9375,0 -0.78878,-12.66651 -1.15322,-18.53559 0.93946,-29.37891 l 0.004,0.002 c 9.7533,-0.30686 21.14542,-1.29533 32.02735,-1.30468 z m -6.51368,29.79492 c 12.36455,0.12747 25.14569,2.65482 35.47852,5.24218 -1.39683,8.17291 -3.42459,15.61375 -5.63086,22.84961 -12.17129,-0.15417 -34.41765,-2.47453 -49.73633,2.17774 -3.12027,-6.90057 -4.186,-16.18501 -4.69336,-26.11524 l 0.004,-0.006 c 6.62075,-2.83469 14.24174,-4.01081 22.11133,-4.14062 0.81975,-0.0135 1.64249,-0.0163 2.46679,-0.008 z M 96.425781,374.875 c 0.845189,-0.0268 1.311452,0.38563 1.492188,1.12695 -2.686514,14.03314 -8.322176,33.56322 -11.261719,50.05274 -1.408451,7.90197 1.911785,23.51721 -7.505859,22.84961 -0.189773,-6.30631 2.203448,-12.65095 3.753906,-19.58594 v 0.006 c 4.18146,-18.69589 7.195663,-36.76207 13.136719,-54.41016 0.13652,-0.0221 0.264024,-0.0352 0.384765,-0.0391 z m 59.957029,10.79492 c 6.97791,0.066 13.78907,0.75263 19.42578,2.30469 -3.55018,9.30454 -7.89628,17.68508 -14.07617,23.9375 -7.10034,-1.93845 -12.43805,2.34122 -16.89062,1.08984 -8.45329,-2.37703 -10.5925,-15.73627 -14.07813,-25.02734 h 0.0137 c 7.38662,-1.44822 16.63388,-2.38951 25.60547,-2.30469 z m 56.35547,3.57227 c 0.44178,-0.2435 0.73406,3.55061 0.61133,4.16601 l 0.004,-0.002 c -0.43894,2.18543 -1.76764,0.88461 -0.94141,-3.26172 0.11449,-0.57508 0.22422,-0.84615 0.32617,-0.90234 z m 0.60742,7.43359 c 4.09497,15.89375 7.02665,41.11522 6.56836,55.49414 -6.54006,2.46984 -4.51066,-6.30309 -4.6914,-11.96875 l -0.006,-0.0117 c -0.37439,-11.9001 -2.76187,-28.61982 -1.8711,-43.51367 z m -63.8125,18.5 h 5.62891 c 0.11877,1.95192 -1.14793,2.29682 -0.9375,4.35352 l -0.006,0.002 c -3.0596,0.28441 -4.51772,-1.30186 -4.68555,-4.35547 z m 69.43946,41.3457 c 3.40429,2.94435 4.31457,8.77938 7.50586,11.97071 l 0.008,0.004 c -3.00797,0.9131 -7.03602,-6.31644 -7.51367,-11.97461 z m -144.517582,9.80274 c 3.789005,0.24699 -0.360436,5.09933 -0.9375,6.52734 -2.304386,5.70756 -5.364556,18.8496 -11.261719,20.67578 v -0.006 c 1.494946,-12.04979 8.927895,-17.21315 12.199219,-27.19726 z m 158.369142,17.38672 c 3.32862,0.22132 3.47289,4.13441 3.98242,7.62304 -3.52907,-0.26051 -3.65946,-4.4613 -4.69141,-7.61718 0.25126,-0.0193 0.48708,-0.0205 0.70899,-0.006 z M 60.693359,495.67773 c 1.442965,0.23046 0.91325,4.867 -1.251953,3.28125 v -2.17187 c 0.79782,0.19459 0.884567,-0.42016 0.9375,-1.09375 0.113848,-0.0269 0.218256,-0.031 0.314453,-0.0156 z m 178.923831,1.09766 c 1.15413,0.476 1.92732,1.39454 1.87695,3.26563 -1.5156,0.30686 -1.61385,-1.02805 -2.81445,-1.0879 l -0.004,-0.006 c 0.18073,-0.88316 0.94141,-1.07916 0.94141,-2.17188 z m -182.888674,6.51172 c 0.252796,-0.0244 0.532609,-0.0158 0.841796,0.0254 1.695048,1.86509 -0.288682,4.27674 -2.816406,4.35156 -0.230712,-2.48635 0.206004,-4.20637 1.97461,-4.37695 z m -4.789063,7.63867 c 1.950659,0.61073 1.987061,1.69841 0.9375,3.26563 H 51 v -0.002 c -0.26465,-1.75134 0.887816,-1.87158 0.939453,-3.26367 z m -3.755859,5.4336 c 1.950659,0.60922 1.989013,1.6984 0.939453,3.26562 h -1.876953 v -0.002 c -0.264649,-1.75134 0.885863,-1.87159 0.9375,-3.26367 z m 205.523436,3.26367 h 1.87695 v 3.26367 h -2.81445 -0.004 c -0.27109,-1.75133 0.87689,-1.87159 0.94141,-3.26367 z"
       style="clip-rule:evenodd;fill-rule:evenodd;stroke-width:1.39011383" />
  </g>
</svg>
