<?xml version="1.0" encoding="UTF-8" standalone="no"?>
<svg xmlns="http://www.w3.org/2000/svg" viewBox="0 0 322.75553 571.18853" height="525" width="322.8" version="1.0">
 <path d="m130.3 312.8c1.409-0.4496 2.874-0.6535 4.334-0.5724 3.502 0.1594 6.929 1.15 10.27 2.326 3.913 1.362 7.645 3.333 11.55 4.71 5.536 2.062 9.036 3.607 14.79 4.574 9.477 1.558 14.91 1.608 24.23-1.124 1.193 14.11 5.505 32.67 5.11 46.83-0.3255 12.76 0.7313 25.5 2.071 38.15 1.418 13.05 2.015 26.2 3.465 39.24 0.7937 6.55 1.96 13.03 2.776 19.58 0.7246 5.497 0.9743 11.06 1.422 16.59 0.5819 8.051 1.179 16.1 1.821 24.15 0.4303 5.839 0.972 11.67 1.197 17.53 0.029 1.576 0.4214 3.082 0.7692 4.59 0.2029 1.838 0.3054 3.727 0.1182 5.568-0.7223 0.5907-1.57 0.9279-2.397 1.26-1.034 0.447-2.31 0.1751-3.126 1.2-1.324 0.0105-2.649 0.0418-3.973 0.0392-0.0112 3.006 0.2831 6.03-0.0401 9.028-0.2385 2.279-1.338 4.248-2.341 6.161-2.187 0.5071-4.345 1.239-6.575 1.459-1.926 0.1621-3.848-0.311-5.774-0.1019-1.734 0.2117-3.342-0.8626-5.07-0.8051 0.486-3.356 0.8672-6.731 1.369-10.08 0.593-2.724 0.981-5.505 1.208-8.299-1.164-0.5097-2.341-0.9776-3.545-1.333-0.9631-0.2457-1.708-1.066-2.642-1.396-0.408-0.2038-1.019-0.3973-1.023-1.025-0.058-1.469 0.0289-2.941 0.0825-4.407 0.0223-1.111 0.437-2.117 0.7379-3.142 0.4236-1.427 0.4637-2.962 0.3612-4.451-0.1338-2.287 0.4347-4.527 0.3812-6.809-0.007-6.271 0.1182-12.54 0.1628-18.81 0.1895-13.7-0.7914-27.36-0.9208-41.05-0.1159-6.961 0.321-13.94-0.2185-20.88-0.1159-1.459-0.7357-2.766-0.9653-4.19-0.4303-2.671-0.6086-5.39-0.593-8.103 0.0468-1.717-1.104-2.964-1.596-4.47-1.523-4.498-1.978-9.35-2.521-14.11-0.2787-2.703-0.7357-5.371-1.008-8.072-0.3233-2.705-0.5016-5.458-1.228-8.069-0.4682-1.657-0.5306-3.408-0.7892-5.113-0.3188-1.189-0.7758-2.329-0.9564-3.568-0.2296-1.521-0.9341-2.896-0.9676-4.462-0.0535-1.38-0.7023-2.564-1.061-3.842-0.6867-2.324-1.148-4.726-1.817-7.052-0.9074-3.252-1.364-6.642-2.069-9.954-0.4437-1.911 0.2386-3.861-0.0557-5.774-0.2475-1.27-1.583-1.333-2.468-1.121-0.3968 0.1307-0.3322 0.7031-0.379 1.074-0.1605 4.459 0.1404 8.945-0.3411 13.39-0.5574 5.223-1.173 10.43-1.775 15.65-0.3077 2.684-0.1271 5.395-0.2965 8.09-0.5105 5.829-0.2608 11.69-0.1538 17.54 0.1092 6.621-0.573 13.23-0.3166 19.85 0.2809 7.149 0.2831 14.32 1.019 21.44 0.5908 6.292 1.164 12.59 2.022 18.84 1.73 12.87 3.866 25.67 4.972 38.64 0.5105 6.292 0.8918 12.6 1.478 18.88 0.2608 2.303 0.4414 4.679 1.269 6.822 0.3701 1.017 0.4169 2.138 0.6867 3.192 0.1917 0.7632 0.3121 1.772-0.2943 2.334-1.96 1.853-4.356 2.946-6.782 3.639 0.5328 2.175 1.231 4.302 2.165 6.289 0.5373 1.072 1.164 2.211 2.198 2.684 0.6956 3.73 1.342 7.473 2.047 11.2-2.965 1.31-6.198 1.033-9.29 0.7267-2.227-0.2692-4.459-0.5071-6.697-0.5071-1.875-0.102-4.046-0.3921-5.324-2.198-0.4303-2.034-0.4236-4.297-1.487-6.072 0.0223 1.804 0.7179 3.518 0.5997 5.332-0.0535 1.336-1.538 2.256-2.49 1.56-0.8338-1.048-0.5484-2.619-0.6399-3.921-0.243-5.272-0.5507-10.92-3.161-15.42-0.4303-0.6979-0.7156-1.542-1.255-2.128-1.732-1.072-3.447-2.206-5.005-3.602-0.8806-0.8051-1.146-2.172-1.124-3.416 0.0446-1.33 0.1293-2.669 0.4816-3.942 0.5707-1.968 0.1026-4.049 0.0669-6.064 2.254-0.217 4.499-0.5568 6.76-0.6874-0.5195-5.246-1.289-10.46-1.886-15.69-1.962-16.1-4.006-32.18-5.946-48.28 0.1315-15.8-0.0602-31.6-0.2921-47.4 0.02-3.401-1.101-6.597-1.458-9.935-0.4214-3.654-0.5841-7.337-0.8739-11.01-0.8985-12.66-2.035-25.29-3.451-37.88-0.3433-3.639-0.486-7.303-0.4793-10.96 0.009-4.838 2.136-14.07 2.945-18.84z" stroke="#171313" stroke-width="2.961" fill="#fff"/>
</svg>
