<?xml version="1.0" encoding="UTF-8" standalone="no"?>
<svg xmlns="http://www.w3.org/2000/svg" viewBox="0 0 322.75553 571.18853" height="525" width="322.8" version="1.0">
 <g>
  <path d="m176.5 92.4c-8.948-0.04213-19.44 3.778-26.19 6.721 0.2872-3.112-1.64-5.091-1.64-5.091-16.93 5.192-14.74 14.83-13.56 17.86-3.117 3.267-7.34 11.14-0.6014 27.28-1.392-1.88-3.957-4.111-7.168-1.054-4.746 4.52 5.196 20.97 10.36 17.76 0.0502 0.2662 0.0882 0.5359 0.1402 0.8011 1.419 7.234 6.032 12.38 12.62 16.28 0.3721 0.2204 0.7518 0.4237 1.135 0.6184l-0.8054 9.101c0 0.2442-0.1834 2.252-0.221 2.488l20.73 0.1679c-0.0317-0.2089-0.0531-0.4206-0.0531-0.6354l-0.8755-11.2c0.4642-0.241 0.9233-0.4946 1.371-0.7735l1.105-0.6906c6.08-3.794 10.38-8.506 11.91-15.25 0.0668-0.2948 0.133-0.6236 0.1997-0.9286 5.169 3.622 15.11-13.32 10.23-17.81-3.628-3.336-6.329-0.1924-7.533 1.745 4.209-11.9 3.438-19.24 1.487-23.66 2.34-2.774 9.458-12.77-1.919-20.82-2.916-2.062-6.654-2.879-10.72-2.898z" fill="#fff"/>
  <path style="color-rendering:auto;text-decoration-color:#000000;color:#000000;font-variant-numeric:normal;shape-rendering:auto;font-variant-ligatures:normal;text-decoration-line:none;font-variant-position:normal;mix-blend-mode:normal;solid-color:#000000;font-feature-settings:normal;shape-padding:0;font-variant-alternates:normal;text-indent:0;dominant-baseline:auto;font-variant-caps:normal;image-rendering:auto;white-space:normal;text-decoration-style:solid;text-orientation:mixed;isolation:auto;text-transform:none" d="m161.1 92.39c-13.28-0.252-19.54 6.332-22.32 12.93-2.773 6.601-2.19 13.23-2.189 13.23v0.004c0.00048 0.0231 0.2359 4.594 0.5644 9.162-0.3462-0.4828-0.6706-0.9796-1.186-1.438-0.7324-0.6513-1.655-1.196-2.744-1.256s-2.288 0.3902-3.482 1.527c-1.277 1.216-1.514 3.145-1.182 5.193 0.3325 2.049 1.239 4.285 2.434 6.299 1.195 2.013 2.673 3.802 4.217 4.934 0.7718 0.566 1.565 0.9722 2.367 1.133 0.5529 0.1107 1.102 0.0383 1.633-0.127 0.007 0.042 0.0131 0.0783 0.0215 0.1211 1.337 6.819 5.714 11.69 11.85 15.32 0.2514 0.1488 0.5059 0.2804 0.7598 0.4141l-0.7227 8.502v0.0156c0-0.0458-0.1927 2.186-0.1953 2.203l-0.0977 0.6191 1.219-1.068c0.0677-0.6095 0.1543-1.388 0.1543-1.754v0.0312l0.7617-9.18-0.3164-0.1602c-0.345-0.1754-0.6848-0.356-1.014-0.5508-5.972-3.535-10.07-8.122-11.34-14.6-0.0441-0.2246-0.0796-0.4713-0.1289-0.7324l-0.1445-0.7734-0.6699 0.4141c-0.4722 0.2936-0.97 0.364-1.559 0.2461-0.5886-0.1178-1.256-0.4419-1.939-0.9434-1.368-1.003-2.79-2.699-3.928-4.615-1.137-1.916-1.993-4.058-2.295-5.92-0.3023-1.862-0.0468-3.379 0.8574-4.24 1.043-0.9925 1.917-1.272 2.68-1.23 0.7625 0.042 1.47 0.4348 2.088 0.9844 1.208 1.074 1.95 2.637 1.984 2.709l0.0762 0.4102 1.066-0.1465c-0.6-6.6-0.7-11.6-0.7-11.6v-0.0176l-0.002-0.0176s-0.5422-6.411 2.111-12.73c2.654-6.315 8.377-12.52 21.31-12.27 12.94 0.2508 18.86 6.474 21.68 12.67 2.824 6.194 2.451 12.35 2.451 12.35l-0.002 0.0156v0.0176c0 3.652-0.1875 7.117-0.4844 10.36l1.008 0.3144c0.4455-0.793 1.317-2.07 2.393-2.701 0.5378-0.3156 1.11-0.4801 1.75-0.4023 0.6397 0.0778 1.375 0.4045 2.221 1.182 0.9296 0.8554 1.21 2.394 0.9238 4.289-0.286 1.895-1.132 4.078-2.262 6.025s-2.551 3.662-3.912 4.65c-0.6806 0.4943-1.341 0.804-1.922 0.9004-0.5813 0.0964-1.075 0.004-1.555-0.332l-0.666-0.4648-0.1719 0.791c-0.0627 0.2866-0.1224 0.588-0.1816 0.8496-1.37 6.038-5.194 10.24-10.71 13.68l-1.016 0.6348c-0.3952 0.2464-0.8043 0.4722-1.223 0.6895l-0.3086 0.1602 0.8223 11.08v0.008l0.002 0.0215c0.00003 0.003 0 0.006 0 0.01l1.215 1.09-0.0957-0.625c-0.0265-0.1742-0.043-0.6655-0.043-0.5039v-0.0156l-0.7871-10.44c0.3309-0.1776 0.6629-0.3538 0.9883-0.5566l1.016-0.6367c5.662-3.533 9.747-7.996 11.19-14.35 0.0167-0.074 0.0324-0.1503 0.0488-0.2266 0.533 0.1997 1.09 0.3019 1.65 0.209 0.8102-0.1343 1.605-0.5297 2.379-1.092 1.548-1.124 3.024-2.936 4.211-4.982s2.082-4.323 2.396-6.404c0.3142-2.082 0.053-4.036-1.26-5.244-0.9669-0.889-1.918-1.347-2.822-1.457-0.9038-0.1099-1.732 0.1349-2.424 0.541-0.6771 0.3973-1.234 0.9438-1.691 1.496 0.2089-2.735 0.398-5.521 0.3984-8.527 0.002-0.0285 0.3993-6.384-2.545-12.84-2.951-6.472-9.36-13.04-22.64-13.3z" transform="matrix(1.088 0 0 1.088 -14.2 0)"/>
  <path style="font-variant-east_asian:normal" d="m167.7 160.3c-3.7 1.4-7.8 1.7-11.6 0.6 1.9 1.8 4.4 3.2 7 2.6 2.2-0.5 3.6-1.7 4.6-3.2z" transform="matrix(1.088 0 0 1.088 -14.2 0)"/>
  <g transform="matrix(1.718 0 0 -1.718 129.5 143.9)" stroke="#000" fill="none">
   <path stroke-linejoin="round" d="m0 0s1.197 2.592 3.984-1.959" stroke="#000" stroke-linecap="round" stroke-miterlimit="10" stroke-width=".787" fill="none"/>
  </g>
  <g transform="matrix(1.718 0 0 -1.718 193.1 143.9)" stroke="#000" fill="none">
   <path stroke-linejoin="round" d="m0 0s-1.242 2.571-3.95-2.027" stroke="#000" stroke-linecap="round" stroke-miterlimit="10" stroke-width=".787" fill="none"/>
  </g>
  <g transform="matrix(1.718 0 0 -1.718 159.6 144.1)" stroke="#000" fill="none">
   <path stroke-linejoin="round" d="m0 0 0.002-2.014c0.001-0.521 0.464-0.911 0.958-0.808l1.099 0.231" stroke="#000" stroke-linecap="round" stroke-miterlimit="10" stroke-width=".7320" fill="none"/>
  </g>
  <g style="font-variant-east_asian:normal" transform="matrix(1.718 0 0 -1.718 165 128.6)">
   <path style="font-variant-east_asian:normal" d="m0 0 8.838-2.283s-0.402 2.479-4.018 3.38c-3.615 0.901-4.82-1.097-4.82-1.097"/>
  </g>
  <g transform="matrix(1.718 0 0 -1.718 155.6 128.6)">
   <path d="m0 0-8.838-2.283s0.401 2.479 4.018 3.38c3.615 0.901 4.82-1.097 4.82-1.097"/>
  </g>
  <g style="font-variant-east_asian:normal" transform="matrix(1.718 0 0 -1.718 150.7 154.2)">
   <path style="font-variant-east_asian:normal" d="m0 0h11.5s-0.91-3.205-5.748-3.204c-4.06 0-5.752 3.204-5.752 3.204"/>
  </g>
  <g transform="matrix(1.718 0 0 -1.718 145.6 139)" stroke="#000" fill="none">
   <path stroke-linejoin="round" d="m0 0s2.015 1.342 4.102 0" stroke="#000" stroke-linecap="round" stroke-miterlimit="10" stroke-width=".9530" fill="none"/>
  </g>
  <g transform="matrix(1.718 0 0 -1.718 176.1 139)" stroke="#000" fill="none">
   <path stroke-linejoin="round" d="m0 0s-2.114 1.342-4.202 0" stroke="#000" stroke-linecap="round" stroke-miterlimit="10" stroke-width=".9530" fill="none"/>
  </g>
  <path d="m175.3 84.93c-8.3-0.04-17.9 3.47-24.1 6.18 0.3-2.86-1.5-4.68-1.5-4.68-15.6 4.77-13.6 13.67-12.5 16.37-3 3.2-7.2 11.2 0.7 27.9 0 0 4.4-14.3 2.6-25.6 7.3 3.3 27.3 11.3 40 6.2 0.4 9.8 4.2 19.4 4.2 19.4 4.8-12.2 4.1-19.6 2.2-24 2.1-2.5 8.7-11.71-1.8-19.11-2.7-1.89-6.1-2.64-9.8-2.66z" transform="matrix(1.088 0 0 1.088 -14.2 0)" stroke="#000" stroke-width="1.579" fill="#fff"/>
 </g>
</svg>
